     450
GEOMETRY FILE / created by CPMD
 Sb     22.455041372638     20.238688055614     13.273308506983              0.000059776379      0.000036796647     -0.000025877293
 Sb      2.907283308273     13.906789841070      4.500073459854             -0.000075795962     -0.000101632417     -0.000047879702
 Sb     24.632238334978      6.717108644008     15.523090513990             -0.000063542058      0.000036398797      0.000113503947
 Sb     20.325670301420     16.777492588945      1.957154870850             -0.000051895152      0.000017300850      0.000037575675
 Sb      5.452035699644      7.656204359911     11.598162416983             -0.000047779101      0.000003307483      0.000004135765
 Sb     17.850635677640     15.327239627977      0.603825557253             -0.000003807573      0.000052094500      0.000007521354
 Sb     20.116150812546     13.878646534760     15.667955248334             -0.000015376669     -0.000062306951      0.000045349793
 Sb     18.238641987881     15.271297648498     17.089077084953             -0.000104073781      0.000071600821      0.000029982574
 Sb     15.779568070755     11.950890023732     11.869275622743              0.000016491918     -0.000046778627      0.000046041064
 Sb     15.986921719778     16.716946890679     13.295848391096             -0.000000359908     -0.000016276179     -0.000231960952
 Sb      9.559291562891     17.618005379722      4.261230107518             -0.000016889975     -0.000060038941     -0.000008464356
 Sb     17.906709183970      2.400650371621     20.736999536582              0.000041610016      0.000005341183     -0.000020148511
 Sb     27.020289581402     15.453247771655      5.569052950477             -0.000037287739     -0.000108327897     -0.000041815648
 Sb     22.341199723121     12.693080361168      1.867069961181              0.000008355619      0.000053201240     -0.000095637110
 Sb     20.252616087378     14.115937588078      4.318081267016             -0.000047826220      0.000014368090      0.000027132754
 Sb     29.004433823515     11.729119352019      0.430783791856              0.000103144997     -0.000049003124      0.000051620293
 Sb     24.534605677448      8.927989080452     19.557340276655              0.000046736111      0.000084220440      0.000015727820
 Sb     11.664163860691      8.923383389669     13.398491186723             -0.000001025863     -0.000070407096     -0.000021121600
 Sb      7.257437653843      8.649418684101     19.369540938782             -0.000051041837     -0.000089799923      0.000002361625
 Sb      9.423756823632     12.872680882345      1.997628219633             -0.000009289739     -0.000028216374     -0.000007143356
 Sb     24.597288572991      1.037029088550     19.323861614038             -0.000033703469     -0.000014161327      0.000088559960
 Sb     11.519780227631     16.593162654902     12.875469720196              0.000020781885     -0.000023834860      0.000053954422
 Sb      9.502042635784      2.712248821680      9.691098453190              0.000041272187      0.000042003976     -0.000035513262
 Sb      5.146095836530     10.446637063450     15.024964151400              0.000036321119     -0.000071470268     -0.000067112549
 Sb     20.406173982632     11.684141718291      0.319983007504             -0.000028833761     -0.000071154642     -0.000080191310
 Sb      7.042874783053      1.580674661828      8.230631692983             -0.000000078969     -0.000023378037     -0.000049497097
 Sb      6.797932926865     16.965258515723      7.725214339379              0.000025352339      0.000011722536      0.000048811961
 Sb      2.953160818813      3.950994382088      5.605343845918              0.000080464361      0.000040602915      0.000017766754
 Sb     11.451142546059     11.446094376070     12.047900665285              0.000053006109     -0.000072728258      0.000070683713
 Sb     18.326724209628     17.923601927367     20.895778533059             -0.000014858819      0.000002658495     -0.000002825592
 Sb     14.078532926772      7.839978200935      5.804915998208              0.000005665367     -0.000015736221     -0.000099300954
 Sb     24.440138086689     14.347891973475     20.684338567287              0.000034187609      0.000011690141      0.000015472620
 Sb     20.125515390966     13.796977119326     20.609519961084              0.000033318769     -0.000105511190     -0.000011551997
 Sb     24.772995641600     11.235260461556     16.735160479793              0.000000014668      0.000039817027      0.000008557137
 Sb     16.331472429787     21.196331552566     -1.886543508249              0.000064118436     -0.000064098249     -0.000022105788
 Sb     22.561866627732     10.079739361967      9.436031654651             -0.000105017697     -0.000022561168      0.000118289217
 Sb     11.481855351380      1.646960952962     19.340374585981             -0.000063904912      0.000043100306      0.000010619503
 Sb     16.279035088394      6.444878493379      9.499341050312              0.000060634154      0.000016489821     -0.000018681523
 Sb     22.371011935779     17.633154249503      4.307076219641             -0.000041790752     -0.000013799613      0.000048778198
 Sb     13.840339113535     -2.701688325030      2.077595868193             -0.000021669169     -0.000045692421     -0.000035495478
 Sb     20.512520605817      9.275299764889     13.336812995389              0.000071301120      0.000069257974     -0.000072954187
 Sb      9.190037266559      7.794186655723     16.833624055479             -0.000071140331      0.000006248845     -0.000075294982
 Sb     33.570622631618      9.193624737659      8.183568794582             -0.000024929403     -0.000005382908     -0.000013211813
 Sb     16.211916071194      8.950931001028      8.103112406177              0.000061664403      0.000073256263     -0.000106300299
 Sb     22.579304133577     12.704806128759     13.504943875891             -0.000143924102      0.000074777961      0.000052076809
 Sb     24.641276390751     11.634746568451      5.899992534687              0.000048943402      0.000015582175     -0.000061418259
 Sb     11.720174745109      1.267434240323      1.971564800623              0.000037372588      0.000049884642     -0.000063432197
 Sb     13.753678922065     -0.156615488063      0.596168568787             -0.000018457040     -0.000002519630     -0.000046265878
 Sb     22.776377383917      7.863253433720      0.393886415779              0.000044274193      0.000046662579      0.000052862308
 Sb      5.194303207113      2.459991972199      4.227535744219             -0.000066390055     -0.000093763927      0.000055650631
 Sb      7.724488612784      1.313921940668     13.261845297885              0.000064109071      0.000060143721      0.000001617229
 Sb     15.974726962290      6.738513111584     15.666269983010              0.000020040947      0.000011715567      0.000008830187
 Sb     11.665488076979      6.702549385497     15.633204954826             -0.000039726320      0.000038819426      0.000039746115
 Sb     -1.615427646387      1.781150217902      7.839443839176             -0.000072945852     -0.000024080864     -0.000031146697
 Sb     13.781706608095     10.317607874582      4.258192986770              0.000012062456     -0.000032906447      0.000029651675
 Sb      9.532180301532     10.236017496182     15.427174381476             -0.000006827042     -0.000013854435      0.000084362724
 Sb      9.622970427998      5.247712318138     13.080326825599              0.000078663935      0.000040803145     -0.000048929695
 Sb     13.772475019586      5.214157615146     13.418171796192              0.000020853122     -0.000025103807     -0.000032719954
 Sb     17.937552182474     13.098952356359     13.163502984588             -0.000022374603      0.000002133435      0.000044145916
 Sb      9.069340394902     10.275970935786     20.698690998121             -0.000027225394     -0.000004192172     -0.000068100081
 Sb      7.381012529470      1.740083541473      2.004910715682             -0.000033964767     -0.000086199530      0.000007901256
 Sb     13.620427234712      7.617093007101      0.575084783188              0.000042026371     -0.000033861613     -0.000041509263
 Sb     18.110880200273     15.585151266847     11.416255012771              0.000028806141      0.000026407400     -0.000115485474
 Sb      7.491430934507      9.072615940712     13.222930823151             -0.000030138085     -0.000014786254     -0.000040648360
 Sb      7.146599088523     11.782103990464      5.730170677481             -0.000064918892      0.000022322207     -0.000056627242
 Sb     11.912062553454     17.088235407291      7.893879362276             -0.000015768411     -0.000114163444     -0.000025317450
 Sb      4.893547926158      5.499004356425     13.223538969782             -0.000095697199     -0.000067486828      0.000082626502
 Sb      9.170439064894     12.698097917868     19.335580528304              0.000000570085      0.000089575124     -0.000023229046
 Sb     18.365978477336     -2.250694403671     12.907126500938             -0.000020345912      0.000015148820     -0.000018824181
 Sb      4.735838456591     15.261802081046     16.992748706376              0.000004484001     -0.000017029359      0.000094072692
 Sb      2.999160228919      3.864831671302     12.120994731631             -0.000006528402     -0.000063979418      0.000085375161
 Sb     15.871721514637     14.360069804573     20.919318954182              0.000033161870      0.000023746521      0.000055380191
 Sb      7.045222364656      3.921112927072     12.143754493915             -0.000002304043     -0.000020634528      0.000092960392
 Sb     22.387972225307     15.249901917602     17.006686509947             -0.000005375310     -0.000056189799      0.000022816604
 Sb     15.958109420066     11.493487309570      0.665626338131             -0.000053203765     -0.000004065947      0.000019093821
 Sb      7.173292754467     16.734700628538      2.051150030274              0.000018528952      0.000021581163     -0.000030356233
 Sb      9.520030449498     10.688041416195      9.559257106115              0.000081801867      0.000006401720      0.000015753098
 Sb      0.551613338344      2.782378293253      3.885048393520             -0.000053703913     -0.000033310353      0.000027849001
 Sb     16.071808003448     18.771198079503      6.121702027265              0.000024257166      0.000050806203      0.000078085732
 Sb     20.438572231823      9.237233067940      1.792902626978             -0.000101388291      0.000007119561     -0.000002069020
 Sb     11.487183479306     14.349407124595     15.449583112527             -0.000010247098      0.000021895976      0.000040331824
 Sb      0.567480580134      2.934101425069      9.536727281095             -0.000038280674     -0.000027351565      0.000071837748
 Sb     18.218978166515      9.941130476122      9.656558002223             -0.000022195108      0.000005665303      0.000003935191
 Sb     11.485372530948     19.097575533224      5.563949475709              0.000004925704      0.000095972723      0.000010805615
 Sb      4.969281364223     18.095677080263      4.561825560854             -0.000002416767      0.000056110841      0.000052796379
 Sb     13.670189483991     15.546871071078     17.009057183182              0.000024759539     -0.000013977715     -0.000034043367
 Sb      5.030261431341      2.722249855961     15.626616301009             -0.000058253734     -0.000019912433      0.000010534361
 Sb     11.451851527719      6.384275549955      4.723321382168              0.000002923149      0.000075901302     -0.000028701166
 Sb     20.351466428013      9.196102065548      7.877645055737              0.000094021772     -0.000117954508      0.000057976195
 Sb      9.489741495845     10.430617061781      4.380640621468             -0.000023461325      0.000079822896      0.000095328234
 Sb     14.198314545769      5.675004718056      8.079377491217              0.000009739191      0.000068075072      0.000084197783
 Sb     20.329574055096     14.111858872764      9.355861272273             -0.000031423207     -0.000035279597     -0.000055062889
 Sb     13.896535394017     17.920025424425      9.800412771670             -0.000021143236     -0.000061977508     -0.000024536539
 Sb      9.572085749322      7.697362065283     11.646408482715              0.000053889541      0.000105747561      0.000161174474
 Sb     15.936009236850     16.549811740181      8.306325574565              0.000029241244     -0.000067278662      0.000020977398
 Sb      7.281279216324      3.999276792754     17.160084734140             -0.000012683000      0.000011242921     -0.000057260185
 Sb     13.678820166192      7.697324636774     11.872974236526              0.000084792879     -0.000031342796     -0.000045540333
 Sb      4.977407019711     -2.472439090343      2.165656506839             -0.000055165891      0.000020319563      0.000085593281
 Sb     25.273588867047      6.564689990493      4.043392989366              0.000011519640      0.000001163210      0.000011329420
 Sb     16.066376191410      4.095179187452      5.814620907431             -0.000007473364     -0.000072766313     -0.000027418507
 Sb     24.600065789410     16.487369893175      8.238745251944              0.000064585929     -0.000012900277      0.000004671940
 Sb     26.859080670233     12.927883387417      2.012844120482              0.000000026456      0.000103483311     -0.000031099771
 Sb      9.366494490411      2.942561883232     15.695138058232              0.000082585545     -0.000016914659      0.000095656214
 Sb     11.763388655777      6.585722481160      9.647535222478              0.000040997365      0.000049801770     -0.000030139683
 Sb     16.254177480783     14.116878485768      4.356747739355              0.000058699923      0.000092250340     -0.000001973912
 Sb     18.502417426755      7.767456158429      5.690953484089              0.000013386662      0.000065277972     -0.000010763575
 Sb     11.459366886800     16.734317621463      2.067565815903              0.000082730998     -0.000025532163      0.000074659342
 Sb     18.054724121439     10.329192839164      4.245120404003             -0.000011375241      0.000005428299      0.000035891873
 Sb      9.941088373955     15.208494829341      5.883698531942              0.000047113555     -0.000002821341      0.000016660810
 Sb     11.301395832198     13.952887926335     20.790668809695              0.000051889835      0.000071594818      0.000046963062
 Sb     20.363974614485      6.385316829235     20.838803533653              0.000008627630      0.000003780435     -0.000039120723
 Sb     24.674162088181     16.592012469347     13.355849549012             -0.000070721365      0.000056775346      0.000012322048
 Sb     20.472923285191      6.499746886712     15.656701773752             -0.000069536584     -0.000058468875      0.000043242952
 Sb      9.258798769992      7.970653136660      0.555364181538             -0.000030592436     -0.000099323194     -0.000043662419
 Sb     20.591631943386     18.851959668424     11.627110395604              0.000066743922      0.000033359324      0.000001964370
 Sb     15.928436752842      9.103730624206      2.178324062363             -0.000099960249     -0.000026071692      0.000002792640
 Sb     24.715610334972      8.894893269127      8.135075716365              0.000005757800     -0.000095433182     -0.000010016705
 Sb     11.768790488930     19.372647927225      0.709413263613             -0.000037870296     -0.000088789111     -0.000040326127
 Sb     13.982222859157     15.252767344523      5.881085476582              0.000081423459     -0.000005071291     -0.000087842984
 Sb     18.296136460196     12.807541919170      1.973360441169             -0.000046009681      0.000056904389     -0.000132513536
 Sb     13.511979258412     15.409412838387      0.733216019074              0.000049491769      0.000051711338      0.000044513526
 Sb     28.685109195057     19.170781047913      0.501705865571             -0.000033672991     -0.000006498194     -0.000028562961
 Sb     28.868524413413     14.235140665358     15.571048327003             -0.000041958957      0.000103341570      0.000007870542
 Sb     24.738652863314      6.416627288190      9.596594507134             -0.000068457274      0.000071920776     -0.000075217905
 Sb     -1.630770399670      3.862005162343      0.633585361913             -0.000015483468     -0.000006889949     -0.000003836556
 Sb      2.911792138349      1.452272908474      2.077516376086              0.000042055023     -0.000045986443     -0.000043043310
 Sb      7.434993766460      4.352028155483      5.465942306383              0.000022783031      0.000072482555     -0.000036258012
 Sb     20.257882189594     19.147122450307     17.159794835945             -0.000106791534      0.000072873376      0.000008955365
 Sb      2.920701579612      3.952081807672      0.763543307502              0.000037876966     -0.000005360894      0.000019116650
 Sb     15.905831637602      8.978028549210     19.736118367944             -0.000023427272     -0.000065279966      0.000047584206
 Sb     13.745726403966     12.681859450338      8.094467540250              0.000004109713      0.000032059959     -0.000025966471
 Sb      9.334756565431      5.085721974567      2.073529688367             -0.000043286905     -0.000012740782     -0.000000692419
 Sb     11.523805647193      3.815619886557      0.610789570949              0.000007732810      0.000003235618      0.000016027798
 Sb      7.562001351772     14.429214332560      4.345514735397              0.000138361387     -0.000024818265      0.000114476617
 Sb     17.927511652827     18.140893153232      9.522871785145             -0.000083431720     -0.000025106036      0.000087395393
 Sb      7.244328068700      1.595283432859     19.329629288154             -0.000030243655      0.000032347085     -0.000005521708
 Sb     13.845810720253      7.940510593579     17.290669186049              0.000031246006     -0.000014779158     -0.000035113006
 Sb      5.155929713995      5.281844409968     19.411225155713             -0.000039119571      0.000041079373     -0.000017742407
 Sb     18.004867771654      2.544171355819     15.686031740723             -0.000002526190      0.000046785103     -0.000000303506
 Sb     16.010800235272     14.121467144589     15.653749498488              0.000015294540      0.000089156237     -0.000097534406
 Sb     16.118034457051     13.854258065728      9.489996979739              0.000014948879     -0.000024361521      0.000067616657
 Sb     18.080725220171      5.123238196607     19.493875248190             -0.000053309247      0.000014943677     -0.000013027043
 Sb     15.669743025085     19.293565435645     17.190267514550             -0.000017872903      0.000041602585      0.000044363181
 Sb     15.907901099115      3.745404709963     12.128773552009             -0.000033666133     -0.000015183592     -0.000015328367
 Sb     18.170964630040      5.068361315096      2.089318717411              0.000051508967     -0.000029733853      0.000057037785
 Sb     14.029297222723     17.444845191035     20.895053101099              0.000028297741      0.000033509323      0.000015925543
 Sb     22.864437734775      7.450528767035     11.640249656310             -0.000041880379     -0.000118677482      0.000034699222
 Sb     11.735273064400     11.422707014979      0.428162494831             -0.000014111223     -0.000077416205     -0.000039573179
 Sb      7.127236704721      6.377445254267     21.283622056802             -0.000028970528      0.000036733532     -0.000048536537
 Sb     20.531317630048     11.816875461570     11.806456941314             -0.000095519770      0.000048785981      0.000063459575
 Sb     18.526893300261      7.827088583375     11.823200366957              0.000130388130      0.000027420484      0.000010678160
 Sb     13.495569794116     12.862897688926     13.427634754567             -0.000042332556     -0.000030848283      0.000039369901
 Sb     22.373154130540     10.486847820977     15.413850848157              0.000072419523     -0.000041344044     -0.000017509187
 Sb     15.957494569371      4.215161075762     17.077679617390              0.000073313876     -0.000013890161     -0.000017362611
 Sb     11.485342918390      8.984536781745     19.339238103473              0.000018192262     -0.000044548878      0.000035507954
 Sb     18.096557566304     18.005456353585     15.660344027305             -0.000115278507      0.000023551783      0.000023344332
 Sb     13.700048340444      2.977632881477      4.433533689278              0.000034138330      0.000044788024      0.000030354376
 Sb     22.422164420235      5.094871524602     13.428632359687              0.000019735105     -0.000004030146      0.000021618878
 Sb     24.712220912691      9.048357407312      1.907182806940              0.000058030535     -0.000032682659      0.000035340705
 Sb     15.974537041045      6.696745280142      4.120235793250              0.000038036536      0.000003088952     -0.000060870866
 Sb     20.762417955146      6.498073039803      4.251556743584              0.000003334199     -0.000076171116      0.000015907507
 Sb     20.583048450327     19.307994053610      0.575007175563              0.000052780176      0.000022922408      0.000024614683
 Sb     13.905673746176     20.276281608730     13.399302697267             -0.000005754003     -0.000132176278      0.000082772954
 Sb      6.799951700425     11.586156496276     16.840357290615              0.000001842304     -0.000002587109     -0.000050768882
 Sb     20.310124403135     18.996113841606      6.029240586735              0.000091237430      0.000039318865      0.000015058940
 Sb     22.899475493752      8.123934052782      5.216211877113             -0.000098808589      0.000067973019      0.000041959952
 Sb     26.587182479716     18.265569373487      9.427194514255             -0.000027179866     -0.000085097685      0.000008986890
 Sb     24.584475931176     13.958749650434     15.488572123419              0.000045717509      0.000043558848     -0.000009613675
 Sb     24.969766595280     11.368135890116     11.776400195228              0.000039691920      0.000059758387     -0.000028642053
 Sb      5.275134129152      7.685052077789      5.742920617492              0.000090255231     -0.000039137468     -0.000063281372
 Sb     20.073277824808     11.421788392620     17.062695177722              0.000005698594     -0.000008514462     -0.000032919888
 Sb     18.134441050657     17.955155182708      4.554939870109             -0.000031060254     -0.000066179351      0.000007215015
 Sb     11.785762878075      3.921981478352     11.779962477405             -0.000020131011      0.000054565668      0.000034324621
 Sb     18.689338558799      0.170161176497     11.478268371842              0.000030893109      0.000027181393      0.000065475790
 Sb      2.558629780284     -1.153397002234     15.346187358747             -0.000024184532      0.000041736197     -0.000008068586
 Sb     16.001191191945     11.509857896442     16.759922608443             -0.000061711148      0.000070612722     -0.000017957865
 Sb      7.254861050000      6.826354889776      4.088852020152              0.000104663261      0.000043144145      0.000070284536
 Sb     11.360713475992     19.071964772458     17.254990663192             -0.000000566678     -0.000009089776      0.000030523678
 Sb     24.591145401153     16.855725444981     19.037326572803              0.000035037299      0.000088227762     -0.000007411538
 Sb      8.895135736743     -2.172306914913     13.397474956068             -0.000119178989      0.000005795506      0.000070890229
 Sb     13.852654154825     10.421659253150     15.413791279190             -0.000008672946      0.000113395237      0.000088463615
 Sb     11.429839748674      6.613526198297     20.824486815029              0.000049622121      0.000005620943      0.000042348518
 Sb     11.403633926299      8.974497353229      2.265267154476             -0.000017400735     -0.000024602144      0.000053113971
 Sb     15.775218323723      1.461792680778      2.353251557286              0.000021511801      0.000051221499      0.000093575453
 Sb     24.755585605294      4.240803293374     17.230655695926              0.000024727950      0.000005407225     -0.000058348565
 Sb     18.342855877383      2.895047232557      4.341974327040             -0.000120795270     -0.000027783495     -0.000038533574
 Sb     11.479374174601     -3.676496302737      0.612380521716             -0.000042118627     -0.000019925684     -0.000046513018
 Sb     18.203210951415      9.984687205109     15.428267003034              0.000100063792     -0.000008940616      0.000059254710
 Sb     15.957138151813     -3.089040387779     11.559538744987              0.000017102450     -0.000028818338     -0.000186006357
 Sb     15.706926466967      3.861328420207      0.719652082987              0.000008854426      0.000013646335     -0.000008686480
 Sb     11.902338276695     14.045637805000      4.468572230388              0.000002168850     -0.000071199503      0.000089750213
 Sb      7.038600365138     13.863595305194     20.622584997934              0.000033705077      0.000013474831     -0.000000390839
 Sb     22.700615842682      5.258300457124      7.894348815465             -0.000084145306     -0.000054332602     -0.000011985050
 Sb     16.064520024107      6.504523131289     21.212245936189              0.000075898356      0.000084050319     -0.000099645194
 Sb     20.520632485792     -1.064662158289      9.264738492573              0.000022123234      0.000028606938      0.000000104227
 Sb     29.192820053367      9.515268547978      7.908623136514             -0.000061757955      0.000057075326     -0.000000440475
 Sb     22.824170791336      5.327026917770      1.849039265001              0.000011024616      0.000019163528     -0.000056347692
 Sb     22.552394320303      2.719258459461     15.750483983429             -0.000014050590     -0.000056442748     -0.000003538723
 Sb     13.535593749495     13.096269695686     19.380616442319              0.000006690762      0.000012324236     -0.000014400923
 Sb     13.598400968068      0.265554953455      5.735560392094              0.000116929506     -0.000043839778      0.000030047178
 Sb     18.284733932559     12.624015067699      8.105105310732             -0.000002775668     -0.000037470862      0.000008791622
 Sb     14.082468743865      3.019150986291      9.443534461140              0.000046748674     -0.000046587601     -0.000043633477
 Sb      5.236295214678      0.459327376938     12.073433136643             -0.000103523743      0.000073741056     -0.000084250627
 Sb     18.273962256307     15.221374708286      6.079668526271             -0.000023467412      0.000027289658      0.000016342229
 Sb     18.272455780860      3.062290634411      9.571591163667             -0.000081234288      0.000001797355     -0.000023234616
 Sb     26.512626924208     12.750768100509      8.218236972296             -0.000067106893     -0.000022502244      0.000081074528
 Sb     20.167854929484      3.996047396347     11.918335514646             -0.000065510812     -0.000063630961     -0.000026985703
 Sb     20.556524212144      3.971761393312      5.634204145010              0.000004547174      0.000021218339      0.000032306887
 Sb     29.043340833565     11.716925933317     11.418891569031              0.000041920732      0.000060930000     -0.000029494364
 Sb     13.500153481370      3.074961188768     21.067486394239             -0.000004068091      0.000030604017     -0.000046441363
 Sb     26.644177342918     17.602349606721     15.451972635090             -0.000058251363     -0.000106095009      0.000028321768
 Sb     18.273157534221     10.226393773164     21.113223840164              0.000061705264      0.000046321409     -0.000040600310
 Sb     17.771702478778     12.491296650902     19.348264570903              0.000007498814      0.000043633241      0.000080740466
 Sb     24.868194881107     11.667267279092      0.573945078871             -0.000004602493      0.000060797703      0.000076720555
 Sb     20.350986228111     11.560243503988      5.545082681082             -0.000041588125     -0.000066414387     -0.000060696552
 Sb     11.534312632198     16.439541885045     19.456669442036             -0.000093680943     -0.000080401632      0.000002623666
 Sb     22.391507748397     14.920138220451     11.994072551347              0.000032148968      0.000065019244     -0.000017152075
 Sb     27.029399828732     20.192512176571     13.240173886877              0.000030526783      0.000119913040     -0.000017555332
 Sb     13.731701380593     12.737174567956      1.922616130963              0.000017435906      0.000062593804     -0.000110911711
 Sb     24.715345594262     19.201392115745     16.749978855996             -0.000046740218     -0.000065169554     -0.000040976240
 Sb     11.646632041845      4.008628355889     16.844464170687              0.000049591844     -0.000028093333     -0.000015305211
 Sb     13.735945553484      0.054232589521     12.007529187666             -0.000055073626      0.000016492446      0.000027692032
 Sb     13.559069930972     10.223100557059     20.883958712754              0.000047656283     -0.000008011146     -0.000026567302
 Sb     24.540672264703     13.853614811355      9.788531841846             -0.000059884483     -0.000057809252     -0.000064723845
 Sb     11.594736233652     11.307951310403      5.949664173468              0.000000121222      0.000004465380     -0.000028112327
 Sb     26.449533302712     12.601242209060     19.161881574011              0.000042114692     -0.000007441227     -0.000019216586
 Sb      9.398712592477      2.894169527516      4.209588836855              0.000065170139      0.000011705553     -0.000055806467
 Sb     13.733253911892      5.378230336600     19.497352606105             -0.000106824103     -0.000017709731      0.000013064789
 Sb      7.025356876187      6.481781522644     15.358291665201              0.000028593444     -0.000109480170     -0.000067735789
 Sb     20.339743326910      3.770826722706     16.861398447087              0.000045695253     -0.000038787283      0.000003865206
 Sb     20.113670935210      1.112628511184      1.868988286946              0.000070361837      0.000051729988     -0.000021455067
 Sb     13.592127809274      5.270870664611      2.234551056350             -0.000020150116      0.000102523462      0.000024244319
 Sb     27.026987422560     15.564890366028      0.699920616121              0.000064496078      0.000083752219     -0.000013242513
 Sb     22.525434302960     12.583336481575      8.141174718296             -0.000029716215     -0.000011050033      0.000012280179
 Sb     20.084866519818     -1.175601669470     15.638774178463             -0.000094280746     -0.000016847957     -0.000004354811
 Sb     24.843433389770      1.535579313592      8.360114959395              0.000027075969      0.000017588888      0.000033001349
 Sb     30.913645264334     12.700253201402     13.440465792105             -0.000026386593     -0.000056082772      0.000027719062
 Sb      7.045566213994      9.159584636482      1.634931770385             -0.000124838616      0.000001116181      0.000036101640
 Sb     13.906512422454      2.707309704617     15.531712556665             -0.000006480097     -0.000027767594      0.000072817773
 Sb     33.788704230927     14.375237406295      9.349585404719             -0.000014271990     -0.000105103396     -0.000083238301
 Sb     18.230310583246      5.217497763593      7.804396219901             -0.000047226625     -0.000038287950      0.000061963795
 Sb     29.032623911073      6.814643109510      9.163640853266             -0.000001135594      0.000008780634     -0.000057945461
 Sb     22.517969047501     10.459591053191     20.870240873081              0.000013248623     -0.000023298774      0.000007948252
 Sb     28.891314374474     16.484483083715     19.133521444963             -0.000013171898      0.000045647155      0.000055818375
 Sb      5.255004443536      5.254967455269      2.040792451387             -0.000011040997      0.000001468364      0.000032704069
 Sb     16.080843240413     11.686042640183      5.793119699197              0.000026608746     -0.000031976563      0.000010220924
 Sb     31.275142874199     20.551612974510     13.429405301730             -0.000077600736     -0.000088454840     -0.000010283928
 Sb     31.384524403651     13.046097655993      8.330028922284              0.000034144404      0.000017994877     -0.000135698388
 Sb     22.588520936798     15.056313598487      5.804406281689              0.000019405970      0.000006500236      0.000077941528
 Sb     13.668680486875     10.274291964648      9.801480621300              0.000048011858      0.000016199760     -0.000079524019
 Sb     26.806460086062     10.375657008701      4.310598001042              0.000059127857      0.000085901413     -0.000087209588
 Sb     22.334877079799     22.784826145272      5.983951200106             -0.000075808855      0.000053068089      0.000027162754
 Sb     26.638955043992     18.004206087362     20.526260777873              0.000008386008      0.000006682856      0.000027480407
 Sb     11.904982893773      1.494826159152      8.152193386929              0.000038667192     -0.000015080083     -0.000076541343
 Sb      9.094987462907      5.342656905335     19.523534187013             -0.000029419628      0.000052960896     -0.000013937277
 Sb      9.525695645304      5.031409125273      8.316135913723             -0.000010567853     -0.000005513544     -0.000087715998
 Sb      7.003893094337     18.774457126027     17.175190161926              0.000066120532     -0.000045879793      0.000022812521
 Sb     26.992317896007     13.336937760376     12.960119187894             -0.000093674653      0.000049093125      0.000015977564
 Sb     18.107679039318      7.805494772441      0.590153023503              0.000050704565     -0.000002441025     -0.000022211465
 Sb     22.645789008156     10.434659127336      4.170511708347              0.000057235945     -0.000046849129      0.000040666146
 Sb     31.012602928082     17.706936834210     20.554480723386              0.000065157017     -0.000000239963      0.000052587174
 Sb     24.505448645672      6.279504440017     20.876237364618              0.000091050955     -0.000116588499     -0.000040390112
 Sb     11.559568893889     19.311148893893     11.543761179175             -0.000047805849     -0.000028601268     -0.000015007022
 Sb     22.563103437184      7.769446100127     17.197167596520             -0.000034615236     -0.000045174978     -0.000041656636
 Sb      9.247841857253      2.718261674718     20.970328880992             -0.000018672538      0.000028108093     -0.000057676973
 Sb     20.468922585671      6.620938046939      9.253140037393              0.000061342981     -0.000022055739     -0.000018473781
 Sb     27.008350312285      9.767483935074     20.766532062353              0.000084807337      0.000012330255     -0.000027628467
 Sb     22.318618271425     17.707027226334     15.569059248645             -0.000061389661      0.000021098257      0.000058016745
 Sb     25.030312410529      8.798433123978     13.063815413903             -0.000074367657     -0.000038951854     -0.000081191273
 Sb     22.505253940722      5.302878614310     19.308162632252              0.000051550093      0.000051138432     -0.000024676561
 Sb      4.963497378714      7.878004911614     16.829064176411             -0.000080028318     -0.000005789938     -0.000044888594
 Sb     26.821751161182     10.243153434011      9.641818262983             -0.000003069450     -0.000034037740     -0.000095285810
 Sb     22.422631991833     12.806897044238     19.240132186841              0.000038662596     -0.000010356597      0.000027076127
 Sb     22.595280196053     17.730319499019      9.743447322647             -0.000102737184     -0.000066384231     -0.000044025490
 Sb     13.846729524647     17.819454533278      4.519531264241             -0.000037204636      0.000088546032      0.000038145079
 Sb      5.204271906829     -2.286333540336     19.415152162487              0.000017820673      0.000047217910      0.000015976452
 Sb      4.858285548596      2.780110557920      9.681615250585              0.000091693334      0.000092487376      0.000001881216
 Sb     26.732681092541      7.671624243638      0.402931354833             -0.000001704100      0.000008983701      0.000004256534
 Sb     22.567609055312     18.049147343221     20.770173609668             -0.000057061593      0.000017139247     -0.000045139606
 Sb      5.104426305966      5.371686495091      7.867726241097              0.000078314442     -0.000069540257      0.000041461938
 Sb     18.246137264255      7.750431640041     17.295500473773              0.000034865737      0.000064601537     -0.000040152890
 Sb      9.279549384969     15.467290604480     17.227201356210             -0.000021749980     -0.000052405520      0.000133628805
 Sb     20.382326803992     -3.845598896586     11.524316452558             -0.000028930147      0.000054995372     -0.000017886362
 Sb     20.359102378627      8.909301604815     19.452865756328             -0.000047951314     -0.000028221844     -0.000027678137
 Sb     11.670226160708     11.717161426655     16.857143224309              0.000005665320     -0.000033427582     -0.000041786332
 Sb     18.036077739801      5.205102254609     13.234900804066             -0.000000085149     -0.000017171066      0.000009854646
 Sb      9.209324240399      7.730384997043      5.786109524326             -0.000003789400     -0.000036986563     -0.000036451188
 Sb      4.976407341920      2.602943377784     20.705947717019              0.000045309057     -0.000055713889     -0.000003412343
 Sb     31.329625650233     15.329519630038      0.214965832139             -0.000028656123     -0.000035968015     -0.000026401620
 Sb     20.524225900857     16.511770077887     19.452169660603             -0.000054557179     -0.000056053041      0.000037485473
 Sb     16.063069314207      9.140144573549     12.750388862307             -0.000020503304      0.000025453049      0.000054661855
 Sb      2.849532491787     -3.611057619319     11.824266164285             -0.000020299457      0.000022002585      0.000036720729
 Sb     15.614355230287      1.706200287497     19.322422354949              0.000001755595      0.000035325727      0.000063791093
 Sb     20.305030728303     16.918703957409      8.027110042087              0.000016525788      0.000013794945     -0.000164253284
 Sb     17.885188276462     -4.694478804516      9.164011012484              0.000000164156      0.000128210005      0.000053602190
 Sb      5.162253722480      0.163346589112      0.559437103315              0.000052936591      0.000076439251     -0.000062889870
 Sb     18.171399316448      0.231119182307      5.896315804940              0.000039879156      0.000060476265      0.000018007412
 Sb     20.232030456671      1.415945730705     19.156890144933             -0.000027144719     -0.000077059125      0.000058217362
 Sb     22.486600809108      2.571204885815     20.488384716401             -0.000016752299      0.000029820022     -0.000039592469
 Sb     27.210235961443     20.679851623335      8.001913086468              0.000080840479     -0.000072632112      0.000023690811
 Sb      0.573132106328      0.094144410504     23.270020744440             -0.000036167145     -0.000014137082      0.000065157937
 Sb      2.629398547037      1.434837330506     24.532903851577             -0.000116499651      0.000012490897     -0.000034952983
 Sb      0.493069816404      2.675681940876     27.101813067098             -0.000005419364      0.000070450250      0.000010654334
 Sb      0.612646268930      0.296469608628     28.543600663300              0.000036518861     -0.000012076760     -0.000016655899
 Sb      2.976940970058      1.116293020955     30.723595249184             -0.000040886633     -0.000033625329      0.000016086249
 Sb      0.529651150942      2.765569667589     31.964928827822              0.000072110261      0.000070713430     -0.000037963493
 Sb      2.665584062983      3.810513690251     22.945082879991             -0.000006360337     -0.000076619125      0.000045873141
 Sb      4.829994983562      5.338042969182     24.729811100591             -0.000003331898     -0.000065873070     -0.000045067978
 Sb      2.850507064111      6.449316193300     26.786370644906              0.000055807799      0.000029924080      0.000001433052
 Sb      2.711247321892      3.886500005580     28.476438633245              0.000015374859     -0.000027507945      0.000067929606
 Sb      5.357366411691      5.143013276879     30.882349783960              0.000019416695     -0.000006886606      0.000071993849
 Sb      2.966835181821      6.504615884015     31.977277631430             -0.000049919300      0.000039554840      0.000022223525
 Sb      4.908858083851      7.872661830218     23.066046959611             -0.000033604167      0.000046414342      0.000020102079
 Sb      7.108223722976      9.121726788999     24.485924971579             -0.000112424153     -0.000049688571     -0.000038469661
 Sb      5.257000610507     10.104205400962     26.660841426437              0.000069370802      0.000009480559      0.000007817776
 Sb      5.015855146183      7.662241406694     28.358194931578             -0.000023724230      0.000029299339      0.000061299782
 Sb      7.298070044054      9.013246594721     30.744253263270              0.000010038834      0.000031176032     -0.000006806135
 Sb      5.216786401695     10.175979583028     32.259280603924              0.000021968415      0.000040818444     -0.000016840660
 Sb      7.371180010346     11.500801055646     22.978505358854              0.000029920358     -0.000008650671     -0.000010615037
 Sb      9.255950070543     12.751191814960     24.698793464695              0.000050666646     -0.000004390936      0.000007917547
 Sb      6.983442827487     14.112133195117     27.118504791251             -0.000072590435     -0.000014047854      0.000100975972
 Sb      7.406663093890     11.475692955212     28.640216651930              0.000059009686     -0.000022160302      0.000072913507
 Sb      9.317537253598     12.808289509440     30.660212231098              0.000008687339      0.000070998184      0.000005949175
 Sb      7.312951053629     14.119112093650     32.050983844933              0.000058930986      0.000014328021     -0.000028052911
 Sb      9.233619869458     15.237628994930     23.140371957808             -0.000096786537      0.000031853422      0.000049289520
 Sb     11.566155516526     16.466332029052     24.592300414805             -0.000034482687      0.000001840190      0.000044816357
 Sb      9.656220782992     17.709970894854     26.962230449545              0.000051711624     -0.000006938430      0.000130573505
 Sb      9.416949709673     15.125130614983     28.493616277721             -0.000081580591     -0.000019795825     -0.000048155713
 Sb     11.768240578143     16.675384379713     30.829504508997             -0.000001372700      0.000025946924      0.000023261716
 Sb      9.391807383950     17.951357924430     32.375462545171             -0.000034483068      0.000024595900      0.000096649996
 Sb      5.118422705271      0.048553331849     22.980101066473             -0.000009515290      0.000006502148     -0.000024665342
 Sb      7.293395451601      1.086814595077     24.788077570911              0.000015782222      0.000007569508      0.000041575788
 Sb      4.910543703197      2.635468560340     26.959335159826             -0.000058737764     -0.000027119462     -0.000083204807
 Sb      4.887217531473      0.247776068449     28.390967697263              0.000017562092      0.000067164794      0.000000328608
 Sb      7.233680399605      1.137792992590     30.518023474838             -0.000038382080      0.000003709198      0.000000912641
 Sb      7.265477200754      3.855533509857     34.214480034734              0.000038620149     -0.000015821913     -0.000049921366
 Sb      7.052146283522      3.639334459480     23.208715378983              0.000000224897     -0.000048041822      0.000039822869
 Sb      8.922920308913      5.420520579041     24.518484106274              0.000053629279     -0.000015641513      0.000030964023
 Sb      7.167654404966      6.254062369987     26.761000843360              0.000022203412     -0.000140845330     -0.000035528626
 Sb      7.123450762985      4.041208626221     28.414185181015              0.000089590459     -0.000000117540      0.000012764633
 Sb      9.559731084308      5.304715974830     30.720568447040             -0.000004867761     -0.000006029142     -0.000030118299
 Sb      7.359649570617      6.558378806357     32.408731845968              0.000005708231     -0.000060524959      0.000025463871
 Sb      9.377137064603      8.021954407959     23.215455707838             -0.000002790765     -0.000043522016     -0.000008004817
 Sb     11.680464584659      8.965132178336     24.848604787522              0.000017653366     -0.000031040028      0.000042879369
 Sb      9.540324393045     10.148484315166     27.139145618058             -0.000029591701      0.000030738633     -0.000068171168
 Sb      9.358221114475      7.590273205363     28.377065075171             -0.000060297118     -0.000045453131     -0.000013181200
 Sb     11.757759265367      9.003024381818     30.822016954575              0.000027179078     -0.000037484522     -0.000021484055
 Sb      9.349009938381     10.243884860863     32.292677647410             -0.000014976006     -0.000000884863      0.000009965138
 Sb     11.478513964199     11.389226455797     23.309578213254             -0.000064132420      0.000031033719      0.000039780568
 Sb     13.855330941165     12.540908261051     24.540404300583              0.000004539353      0.000020278305     -0.000059560580
 Sb     11.720730639298     14.209408436192     26.932703903573             -0.000098129500      0.000009493422      0.000050295379
 Sb     11.769110815960     11.553219188457     28.374871209159             -0.000064131936     -0.000028022490     -0.000024587237
 Sb     13.653872757711     12.623914076918     30.848871836272             -0.000035066763     -0.000043218974     -0.000106753825
 Sb     11.406596529463     14.157492599553     32.020503698353             -0.000067120018     -0.000071176629     -0.000061796746
 Sb     13.476001889507     15.013344830872     23.167088538118             -0.000006283470      0.000058953278     -0.000032697449
 Sb     15.598988075809     16.476048484757     24.523131932039              0.000017672110     -0.000048476194     -0.000004674591
 Sb     13.651446881605     17.968342437756     26.563099023048             -0.000012739390      0.000072443333     -0.000016723030
 Sb     13.763702052476     15.441808532143     28.349543167374             -0.000008590306      0.000033915127      0.000087183595
 Sb     15.688934461427     16.522910149116     30.749351416046             -0.000038881347      0.000002061155      0.000005585478
 Sb     13.750817754724     17.897180265529     32.480995853576              0.000021535636     -0.000072036250     -0.000056252279
 Sb      9.359699284870      0.170355507410     23.043766674188             -0.000052494756     -0.000007210158     -0.000001712371
 Sb     11.543688184596      1.477096872708     24.512724267812              0.000060642227      0.000051347401     -0.000033336151
 Sb      9.300086755466      2.425565938254     27.007781767254              0.000045356801      0.000034696306     -0.000108068036
 Sb      9.608392893634     -0.093331201700     28.330577708907              0.000069956399      0.000037711412      0.000015578215
 Sb     11.508409030715      1.684699397079     30.912107711404              0.000073269651      0.000045593027      0.000071283235
 Sb      9.270863763863      2.767657495375     32.094604314387              0.000005334159      0.000044731608     -0.000059203935
 Sb     11.229911392765      3.891913170294     23.285628956890              0.000110463166      0.000036909287      0.000066390137
 Sb     13.454785948291      4.876493511122     24.676467878259             -0.000000858828     -0.000012477501      0.000092077276
 Sb     11.544414861872      6.366942059509     26.793017447142             -0.000063919804      0.000024289841      0.000052153999
 Sb     11.435260311948      4.003010466151     28.528078356607              0.000007537495     -0.000018957769      0.000002340993
 Sb     13.676293699263      4.990084962582     30.910974951694             -0.000018253515     -0.000040523228     -0.000037188524
 Sb     11.634505777218      6.504048351938     32.283099333019             -0.000018975225     -0.000059608506      0.000013784838
 Sb     13.476340303815      7.714357884458     23.194229970433              0.000015778291      0.000039057348     -0.000022078012
 Sb     15.697832112049      8.985464639152     24.652838777122              0.000071687845     -0.000044872402      0.000033751228
 Sb     13.848168972300     10.129364030099     26.989875524289              0.000035007291     -0.000025614550     -0.000000268031
 Sb     13.762575809827      7.638455273474     28.446262830387              0.000000908795      0.000019170034      0.000000562149
 Sb     16.123795095321      9.135587138075     30.603205274506             -0.000064626859     -0.000002522078      0.000016596147
 Sb     13.788888542147     10.148242502550     32.400443755028             -0.000039539271     -0.000056692134      0.000023200561
 Sb     16.120784964754     11.530920751826     23.185823940722             -0.000005987497     -0.000010508572     -0.000023912758
 Sb     18.184431676842     12.744230183807     24.825803546383              0.000027696960      0.000046204852      0.000107402688
 Sb     16.112523403701     14.013361413089     26.996210767721              0.000047393789      0.000046177298     -0.000010676467
 Sb     15.937946110700     11.622206642551     28.540134400434              0.000050617311      0.000011548694     -0.000078269352
 Sb     18.196880553565     13.051606666385     30.805638688816              0.000015347799      0.000045553626      0.000030786186
 Sb     15.827609607473     14.139810341538     32.381401016211             -0.000002477736      0.000048715171     -0.000016767039
 Sb     18.155082619112     15.228510925390     23.210225423819             -0.000074353289      0.000092892288      0.000035818817
 Sb     20.122468322879     16.659293844519     24.516262827098              0.000068369996     -0.000048994459     -0.000000997011
 Sb     18.103883898076     17.868647700134     27.175876759909             -0.000004155039      0.000056644967      0.000003142138
 Sb     18.137343384865     15.293406130861     28.387262375600             -0.000055714409      0.000085341168     -0.000044437963
 Sb     20.385947307276     16.532446422589     30.715158231149              0.000021157230     -0.000017791832      0.000076818838
 Sb     18.032156884242     17.530163465270     31.928477430442              0.000004744119      0.000096360222      0.000042631900
 Sb     13.757015872476      0.024423738472     23.130288176095              0.000025378003      0.000040981318     -0.000038923761
 Sb     15.866222612333      1.389888212899     24.712467254305              0.000146601477     -0.000029119135      0.000023281999
 Sb     13.687256213444      2.648837322825     26.861853400456             -0.000022361035      0.000000093524      0.000026966353
 Sb     13.749251443638      0.203298594703     28.483094833303              0.000031192362      0.000004830258      0.000048750198
 Sb     15.878166887526      1.621305083137     30.807191524685             -0.000037201892      0.000034059897      0.000014963980
 Sb     13.776274881140      2.519529325248     32.609598408414             -0.000035949790     -0.000017902529      0.000077877353
 Sb     15.917043054208      4.007146478590     23.123882866698              0.000006255407     -0.000013995638     -0.000035553108
 Sb     18.092168347231      5.140960299269     24.735538371069             -0.000035405461      0.000067496356      0.000020161906
 Sb     15.879779745700      6.459153781151     26.814028817653              0.000013457224      0.000028013142     -0.000046859399
 Sb     15.950240283020      3.862503904288     28.338948723644              0.000010020295     -0.000030467164      0.000030483687
 Sb     18.167336281485      5.324631771510     30.714384036531             -0.000038726619      0.000004409099      0.000007352945
 Sb     16.089407249484      6.515142940302     32.169277137916             -0.000014063056     -0.000069035366     -0.000047386321
 Sb     18.054369263571      7.701947024179     23.181789486537              0.000089734950     -0.000007470779     -0.000018185290
 Sb     20.315033649420      9.216772032337     24.593935895363              0.000023730669     -0.000015414536     -0.000083449690
 Sb     18.169830121245     10.328020853590     27.040221134171              0.000007767294      0.000050950078      0.000004458636
 Sb     18.038351701442      7.837647174250     28.134664903242              0.000038057333      0.000089807948      0.000003059665
 Sb     20.564662858379      9.003297983495     30.909610840566             -0.000025147734     -0.000023601247     -0.000006288856
 Sb     18.210815231404     10.239877184680     32.109330142648             -0.000083119389     -0.000003628410     -0.000032422150
 Sb     20.412094442774     11.589262126929     22.944504374814              0.000020771469      0.000083135041     -0.000046605507
 Sb     22.743793040034     12.998454272630     24.320730890593              0.000027718985      0.000071666791     -0.000038234700
 Sb     20.491366104467     14.071114166358     27.005114071737             -0.000059380733     -0.000042728883     -0.000039035261
 Sb     20.447226892487     11.676575257756     28.534574783567              0.000099280882      0.000017497127     -0.000024176213
 Sb     22.557480456550     12.701633422170     30.643853101049              0.000007489482     -0.000042482184      0.000038743262
 Sb     20.447596764235     14.087831468177     32.254221916136             -0.000006604669      0.000053147936     -0.000020511941
 Sb     22.385219583413     15.557311914480     23.082416565614              0.000014523044      0.000048514639     -0.000012621878
 Sb     24.599578317297     16.515063556298     24.599903500838             -0.000015460305      0.000024899768     -0.000002537231
 Sb     22.960700509389     17.658582337607     26.834362595076              0.000099589088     -0.000030046507     -0.000046244485
 Sb     22.655237614881     15.225373094844     28.529354858145              0.000006342943     -0.000045170864      0.000045182343
 Sb     24.442734194750     16.686916217236     30.814477819864             -0.000088094175      0.000000070015      0.000022997394
 Sb     22.418242844793     17.869411273298     32.131941950188              0.000039353263     -0.000081238063      0.000059043812
 Sb     18.030524350647      0.069373297242     23.234632091740             -0.000010954523     -0.000027615615     -0.000036225506
 Sb     20.265447191245      1.217206589087     24.498950188376              0.000022811555      0.000033316483      0.000015591168
 Sb     17.996662600064      2.681848502674     26.804497376410             -0.000050330957      0.000037133265      0.000026645180
 Sb     18.375105541450      0.115845715876     28.154711406152              0.000059923206     -0.000043983962     -0.000010005999
 Sb     20.085062482901      1.434261046487     30.824324344116             -0.000014158656      0.000002062209      0.000000201021
 Sb     17.992415067731      2.929654154958     32.435161608867             -0.000019962810      0.000029778777     -0.000093888770
 Sb     20.036026925118      3.956673090732     22.992232302926              0.000055999549     -0.000013813678      0.000061971501
 Sb     22.235892640158      5.003445258008     24.543746709463              0.000026290227      0.000067202979      0.000022899347
 Sb     20.002685682140      6.387356270328     26.634362365522             -0.000078151544     -0.000054048859      0.000030107541
 Sb     19.994027480313      3.903830859044     28.421976043919             -0.000086842504      0.000084133688      0.000079305642
 Sb     22.632249449352      5.175984764162     30.459303650350             -0.000011386707      0.000000694233      0.000034032868
 Sb     20.385472100466      6.303198211411     32.092853749908              0.000019944939     -0.000038198948     -0.000022956030
 Sb     22.360801535849      7.812845722834     23.278239517474              0.000038661910     -0.000149611102      0.000012261959
 Sb     24.644837082427      9.199046421794     24.222665702270              0.000067913847      0.000051401558     -0.000032317844
 Sb     22.437194921588     10.306789764792     26.984074686735              0.000064886345      0.000028514109     -0.000093309857
 Sb     22.403853575268      7.551884126288     28.335190731180              0.000004877903     -0.000033065933      0.000034852523
 Sb     25.055250064388      8.957745064469     30.617899307225              0.000043579503      0.000045984158      0.000043531703
 Sb     22.738603205215     10.211526914839     32.186705829055             -0.000057021017     -0.000080120525     -0.000012871525
 Sb     24.989872497170     11.790547368343     22.905210644488              0.000003516358     -0.000081444922     -0.000033559543
 Sb     27.071629780194     12.909877825953     24.343278628573              0.000017770601      0.000011591141     -0.000045999725
 Sb     24.681820129525     13.848069845861     26.977632943041              0.000026658772     -0.000102349321     -0.000047229374
 Sb     25.082052042061     11.310458917398     28.135162246950             -0.000029356589     -0.000109983986      0.000027242544
 Sb     26.782549552253     12.684126526672     30.610515221379              0.000111587740     -0.000068293860      0.000007192171
 Sb     24.945190342703     14.315492388954     32.289308133647             -0.000022229928     -0.000065118551     -0.000002227541
 Sb     26.928296173581     15.373376088956     22.912389056037             -0.000000432213      0.000053224632      0.000059004536
 Sb     28.998428973299     16.466321632529     24.788743195504             -0.000054806233     -0.000056789853      0.000033006858
 Sb     26.933207248215     18.123259253963     26.887978497572             -0.000064520709     -0.000029722532     -0.000130138313
 Sb     26.766853430771     15.425684968187     28.468359724049              0.000012277027     -0.000037306803     -0.000040833992
 Sb     29.391104685280     16.614207497206     30.547918362966              0.000031496953      0.000015538504     -0.000129127693
 Sb     26.804389700324     17.822273017059     32.084931804794              0.000011193363     -0.000012817670     -0.000079725091
