  450 
 STEP:  1
Sb        18.624255858     12.421024362     12.050963123 
Sb        11.899352154     17.142723921      6.150780927 
Sb        23.786287740      7.484802903     11.658633157 
Sb        16.607794641     17.780881504      2.307461061 
Sb         4.413892297      6.885202883     13.184291267 
Sb        19.275327802     15.935802728      0.461541177 
Sb        18.795929529     10.706447516     14.309011010 
Sb        18.388395183     16.766977716     17.116319284 
Sb        14.323955338      8.630851552     14.499529964 
Sb        10.060921503     13.122452930     15.376563088 
Sb        16.502685128     18.446009998     10.341781597 
Sb        17.460565335      4.294006231     20.293165033 
Sb        25.364232499     11.223702084      6.607812140 
Sb        22.044199935     16.240221365      1.889063237 
Sb        23.269812220     14.155530411      6.240798682 
Sb         7.067746852      8.776232620      2.143434589 
Sb        24.926974449      8.923697411     18.315874683 
Sb        12.760331938      6.473967331     13.205525060 
Sb         6.547877605      8.863177516     19.982260865 
Sb        11.385816725     13.932056333      2.524750027 
Sb         2.419500078      2.710779413     19.340471959 
Sb        11.360367900     17.490035659     12.438125504 
Sb         5.908451756      7.594298793     10.789113407 
Sb         8.017805163     11.736925490     13.404247730 
Sb        20.612103189     10.900829241      0.890210805 
Sb        10.214220899      3.352317538     10.452960006 
Sb        13.811187720     16.337511611      3.333406312 
Sb         4.592650998      4.167788963      5.921146533 
Sb        12.536492285     10.574854701     12.825237953 
Sb        17.196722130     18.541954983     20.787621717 
Sb         8.656144976      8.845612692      7.778044966 
Sb        24.338215464     14.784485579     21.448212549 
Sb        19.802517460     13.361115059     20.085102645 
Sb        24.174312732     11.719735625     16.534957966 
Sb         3.898237072      1.098284645     33.167778181 
Sb        19.231872343      5.943135187     13.475056393 
Sb        23.983514138     18.826642706     17.778615478 
Sb        10.990444335      8.303402934     14.242460722 
Sb        23.649263000     16.335508937      4.263822022 
Sb        25.159755162     18.683381430      1.187526903 
Sb        19.452047300      8.484253512     10.437554861 
Sb         9.417082481      6.148231923     15.797665137 
Sb         5.771456427      9.326401124      7.026356392 
Sb         8.150746387      6.199044831      8.850303213 
Sb        26.781569081     14.613451332      9.903980538 
Sb        25.860555944     13.776692530      2.871376410 
Sb        11.647798443      4.748836825      0.407869101 
Sb        13.329867644      3.402392006      2.305658907 
Sb        21.352871827      5.125709974      2.145735153 
Sb         8.416731367      0.739511908      6.620898001 
Sb         8.371901736      4.082490820     13.658603742 
Sb        16.919348269      4.332723478     14.131299707 
Sb        12.532428503      4.728315409     15.604820740 
Sb         4.439607832      1.566658034      6.272645689 
Sb        17.046555628     13.010784738      4.628057284 
Sb         8.052145590      8.500217139     16.026357857 
Sb         9.203377414      5.870504837     11.728343286 
Sb        17.531479019      3.924377595     11.282025920 
Sb        16.328233235     12.441165711     14.073048277 
Sb         9.165215944      9.917270494     20.589201829 
Sb         6.725518704      4.175070539      3.859952270 
Sb        13.650659860      7.552670150      0.388427549 
Sb        12.052324488     11.505528212      8.114358941 
Sb        11.147209250     13.397520303     11.762082860 
Sb        10.030838112     12.467362154      4.696316912 
Sb        14.976342339     16.258009520     11.425347311 
Sb         6.357898594      1.522579833     12.388421088 
Sb         9.670888709     10.478453725     17.642422497 
Sb        19.136569262      1.314506855     12.361646511 
Sb         9.128094335     14.624626287     17.644615485 
Sb         2.546337789      3.431784899     14.190660001 
Sb        15.394434708     15.902967441     20.484082835 
Sb         3.636988211      4.172153370     11.178281386 
Sb        20.189867607     12.829886936     16.720459818 
Sb        14.236078933     13.361994599      2.517641733 
Sb         9.961328283     16.442448943      1.377827932 
Sb         8.917550064      9.135344993      4.515689742 
Sb        24.520077451      4.673332473      3.822917474 
Sb        17.282930061     17.886862891      5.453859853 
Sb        17.922616252     10.232572899      1.679790962 
Sb        12.987368603     16.443001500     14.604354878 
Sb         1.728627280      1.894827394      6.684928015 
Sb        13.776419141      4.671835527      8.552979596 
Sb         2.413314976      1.063388717     12.074218910 
Sb        12.560009708     18.604452444      8.814328483 
Sb        14.932070531     18.132026804     13.792804356 
Sb         5.194220548      4.121604528     15.107239541 
Sb        13.558543958      5.258944550      4.601090669 
Sb        14.931228836      9.944439074     10.865055572 
Sb        13.688114718      8.854343538      8.632239876 
Sb        10.676778499      6.771193816      7.508405541 
Sb        15.379919056      5.924420320     11.186414496 
Sb        14.633394657     13.276826255      8.521489928 
Sb         8.330922630      8.837214293     12.659085271 
Sb         9.878083142     10.221795041     10.482302280 
Sb         7.029739427      2.498961739     17.718822340 
Sb        11.874013488      7.144127380     10.031058640 
Sb         7.822042039      1.524376586      3.870713817 
Sb        26.971666631     11.043013877      3.299882739 
Sb        20.050165509      8.611757391      3.452127197 
Sb        24.218672520     16.773394916      8.795288131 
Sb         6.707351077     11.257372710      0.821188435 
Sb        11.538328580      2.518326254     12.850392670 
Sb         6.755359594      3.139656027      9.681892265 
Sb        15.355676463     16.624413736      7.402471936 
Sb        15.384392697     10.685401533      3.842583499 
Sb        13.409722704     15.166229240      0.256162633 
Sb        22.350177557     10.579725646      3.645174025 
Sb        11.064572409     14.122122162      7.102869821 
Sb        11.784871699     15.551437625     22.103585755 
Sb        19.556038545      6.397258798     20.889378088 
Sb        23.323033944     15.772897419     14.688732616 
Sb        19.969134001      6.462720702     16.444900070 
Sb         8.112785003      5.315869347      1.462745527 
Sb        20.947905008     18.846214007     13.242404534 
Sb        13.282641160     10.534778229      0.452540098 
Sb        23.828977317     14.230439362     10.100606336 
Sb         0.628992676      0.502747757      0.711167516 
Sb        19.226915994     15.138611290      5.660029636 
Sb        17.549738763     13.772019693      1.612080466 
Sb        16.223815141     16.210843468      0.018207131 
Sb        29.727389071     18.331317871      0.354019245 
Sb         8.925110226     15.191884823     11.383424355 
Sb        20.514484907     12.834126424      9.066367874 
Sb        23.555916711      3.055037814      0.352970351 
Sb         2.285664567      0.523707604      3.203740802 
Sb        11.627929399      0.474001430      9.516345848 
Sb        21.913984599     15.399213607     17.629818682 
Sb        24.831282531      5.666466803      1.055433601 
Sb        17.751465651      8.009586487     19.322688508 
Sb         7.571025706     12.049142539      9.909841399 
Sb         9.503677226      2.909205681      0.995593135 
Sb        10.162143970      5.527531555      3.616040031 
Sb        12.728293989     11.260264633      5.277723783 
Sb         7.276798764      0.130684239     14.911694962 
Sb        19.449212955     18.944493069     19.149652925 
Sb        15.010134461      8.937150354     20.531757729 
Sb         4.185951338      4.438721513     20.681879525 
Sb        18.035753813      1.488232073     14.943226498 
Sb        16.414999614     12.386815733     17.415007459 
Sb        16.100364172     13.389177598     10.872246277 
Sb        17.951084654      3.908338364     17.145904206 
Sb        15.899268775     15.998496044     16.345658864 
Sb        20.901098616      4.369628520     11.789972389 
Sb        19.900156432      3.545496299      0.293288613 
Sb        12.945309660     18.168920961     20.810984747 
Sb        21.762938613     10.250108701      9.411965406 
Sb        10.459275657     11.109168996      0.807864704 
Sb         8.482384150      6.170986354     20.734183407 
Sb        20.840796277     14.004993482     11.776187239 
Sb        16.626173241      7.766253921      9.016610569 
Sb        12.677378074     15.230240692      9.558909145 
Sb        20.967386680      8.794569676     13.169490012 
Sb        15.682619574      1.823560186     16.987805522 
Sb        11.719099318      8.859200000     20.453569239 
Sb        21.380265460     18.221251960     16.870291525 
Sb        19.245436193      4.797559963      4.087329716 
Sb        22.730934441      5.560713945     14.149741654 
Sb        20.862812566      7.324315569      0.542985832 
Sb        15.579224231      2.528667750      5.164437463 
Sb        18.406653396     10.817208171      6.186612028 
Sb         7.852105475      0.169475149      0.438224372 
Sb        17.209172481     15.249867428     13.680489221 
Sb        28.767222911     12.316491426     18.096805471 
Sb        16.572248895      8.199022644     12.625218219 
Sb        22.489724970      9.489834760      6.589429717 
Sb        25.543700738     16.179873985      6.269362517 
Sb        26.636406805     13.189483939     15.977900132 
Sb        22.276484344     12.749545291     14.487750954 
Sb         5.286767950      8.012455127      4.738424007 
Sb        18.556073141     10.441075897     17.487732418 
Sb        21.811578149     18.085670115      5.877671658 
Sb        17.227086117      1.859850683      8.854300009 
Sb        19.780411765      2.122364880      7.411600542 
Sb         4.831411551      1.493484731     16.274232442 
Sb        12.442346459     11.857297333     17.498824048 
Sb        10.803604850      2.039277732      3.713953281 
Sb        12.262850263     18.303683319     16.598402877 
Sb        26.779756997     15.736699733     19.681176088 
Sb         8.826983857      0.999310388     10.893416656 
Sb        11.294973358      8.037955743     17.881416729 
Sb        13.454101527      3.548830936     18.607509943 
Sb         9.505934536      8.020067300      0.333261879 
Sb        17.440426566      2.214082491      2.992623826 
Sb        23.885740079      7.715976950     15.843413063 
Sb        21.856571600      2.116267014      4.553419114 
Sb        21.482507128     18.796995713      0.985012115 
Sb        14.168098172      8.877258834     17.489950717 
Sb        13.448970203      0.153073676     14.744422998 
Sb        15.744897810      2.306988453      0.804225253 
Sb        14.734791946     14.415036274      5.519118487 
Sb         9.669840860     12.845870421     20.232346097 
Sb        21.339519824      5.530117371      6.030170335 
Sb        14.768459054      5.697643867     19.849928232 
Sb        28.970391548     18.708589030      4.952603380 
Sb        25.136043424     13.990857853     13.456677317 
Sb        23.496681378      7.924960329      2.114440429 
Sb        23.870090909      4.358328053     16.954859867 
Sb        13.374262562     14.434497932     18.652692319 
Sb        13.242319113      0.569610888      3.758526338 
Sb        19.154162476     17.075068489      9.156702323 
Sb        19.725302688      4.930662700      8.124017587 
Sb         5.214956010      5.237494189      8.974857488 
Sb        19.961249561     17.233883391      3.678646283 
Sb        20.016400644      8.236951472      6.272679720 
Sb        27.137938192     13.468453680      7.151892809 
Sb        17.083739646      4.432489089      6.944955293 
Sb        24.455647916      7.235350292      4.919609977 
Sb        28.068010504     10.819227851     15.321117234 
Sb        14.057869289      2.288961603     21.076608444 
Sb        29.020492112     14.671949965     13.372565486 
Sb        18.982409729     10.553502637     20.445733053 
Sb        17.626002484     14.511770342     18.824247015 
Sb        23.736770836     12.419225783      1.537105054 
Sb        20.716874451     12.670055175      5.618015088 
Sb        11.364241398     16.585614590     18.691965720 
Sb        17.392380395     14.815056840      8.544782455 
Sb        27.209337017     18.307997032     14.180914586 
Sb        12.623407288      8.196938870      5.618679137 
Sb        28.029401519     16.524245867     16.197915475 
Sb         9.454623060      2.095650142     15.510239647 
Sb        13.938272735      0.259734445     11.504234542 
Sb        16.261294617     11.643172605     20.772040834 
Sb        26.832394323     18.098416514      9.858214102 
Sb        15.227400039      6.953299139      2.792143300 
Sb        28.699250838     13.913445229     20.790815280 
Sb        14.828165749      2.983851271     10.708281446 
Sb        10.498223183      3.781724191     18.823418139 
Sb         7.182401622      5.316617391     17.796958088 
Sb        20.612572011      2.610141212     17.049954635 
Sb        19.911248664      1.282465144      1.932861955 
Sb        17.055732062      5.000414155      1.612946053 
Sb        27.215870737     14.979274537      0.576565135 
Sb        19.685012462     15.134907500     15.084535252 
Sb        29.591451850     17.682702079     10.982109054 
Sb        23.858508137      6.802432874      7.680018970 
Sb        30.336200951     14.744108704      8.528823466 
Sb         5.454784582      6.992860063      0.596003341 
Sb        14.381915485      2.909967914     13.917343971 
Sb        29.989297215     15.984794982      5.695122407 
Sb        17.421568513      6.664225192      5.298336524 
Sb        25.393995634      8.488552933      9.315508421 
Sb        22.220894326     11.620184358     19.991363170 
Sb        29.091009906     17.473399567     18.504353969 
Sb         7.777889610      6.456839753      5.301432485 
Sb        20.795623930     13.476468654      2.745159987 
Sb        21.624185590      0.724775220     14.194238392 
Sb        24.868337392     11.177066058      9.382417613 
Sb        21.451756365     15.832266076      7.623162905 
Sb         7.809457332     11.773800897      6.871507588 
Sb        29.233939972     13.557158326      4.408853770 
Sb        26.593926706     18.843910494      6.748099612 
Sb        26.378570519     18.267090749     21.030095070 
Sb        12.812729019      1.738416484      7.194660298 
Sb        11.070001627      5.466484092     20.952329434 
Sb        10.987597619      3.507265393      6.134919542 
Sb        30.900842778     18.768918286     16.295598109 
Sb        26.892480349     12.019729543     11.422835579 
Sb        17.881185740      7.498504102      0.435827569 
Sb        27.775780230     17.325828766      2.236962240 
Sb        31.793682053     18.107724679     20.546877361 
Sb        24.458532421      7.063365875     20.510592534 
Sb        12.752408781     13.339630189     14.025522482 
Sb        21.225863143      8.894154666     16.181166374 
Sb         9.898268200      1.925940696     20.844829894 
Sb        18.046620330     11.057572886      9.219111310 
Sb        27.217118763     11.332778597     20.419975087 
Sb        25.248684951     15.977144115     17.040962590 
Sb        23.036860956     10.477679479     12.553146660 
Sb        21.791551444      5.637467010     19.152358403 
Sb         5.722360661      7.973470701     17.246687490 
Sb        25.278980114      9.692147084     14.381074544 
Sb        23.834508001     13.643317633     18.834343794 
Sb        23.117315905     16.934761895     11.633152090 
Sb        19.474708552     16.400782425     11.698950403 
Sb        15.183591822     18.389155812     18.591456682 
Sb        23.439742264      3.667270612      9.474873156 
Sb        25.189324918      9.900533766      1.145613077 
Sb        12.248167838      0.031300172     20.641629147 
Sb         8.511797173      3.518790169      7.439583007 
Sb        17.154883456      8.073476717     15.996118357 
Sb         9.422830651     15.995742662     14.664769154 
Sb        21.405438010      1.203794103      9.892173831 
Sb        22.104918730      8.866971700     19.389865511 
Sb        12.705347583     12.159644265     20.232098340 
Sb        21.634909006      6.406153918      9.924908020 
Sb        11.083814529      8.115040179      2.910546051 
Sb         6.333312009      2.443097069     20.397163282 
Sb         8.186851566     14.038334923      1.707924967 
Sb        21.009696013     16.198266428     20.528843251 
Sb        14.960528047      6.253637443     16.931625939 
Sb         4.016750493      1.593022179      9.285013235 
Sb        16.944150615      1.086850100     19.575267180 
Sb        16.229622928      8.996238267      6.297501090 
Sb        30.880090400     17.974194794      8.503520407 
Sb         4.797753125      1.623794840      2.227759911 
Sb        31.826852476     17.953300292      4.163398133 
Sb        20.192153755      1.849959533     19.825386701 
Sb        22.238269940      3.587139471     20.969435812 
Sb        26.575137730     16.147003651     12.283793158 
Sb        22.108352134      0.509031839     23.207668650 
Sb         2.124066763      1.969929270     24.582621994 
Sb        22.124898274      2.452926181     26.882095697 
Sb         0.398532861      0.164764197     28.523303766 
Sb         2.282826257      0.833236192     30.633664928 
Sb        21.931935131      2.536631516     32.167891684 
Sb        24.424155943      4.419503168     23.130113263 
Sb         4.747199340      5.586738210     24.585419831 
Sb        24.222544752      6.627691291     27.029711047 
Sb         2.442390901      3.729047250     28.452792281 
Sb         4.400077963      5.095150279     30.616179740 
Sb        24.345601462      6.438131264     31.953487279 
Sb        26.407611998      8.112528106     23.261821836 
Sb         6.796006369      8.983152790     24.765851998 
Sb        26.490784647     10.395377479     26.839309300 
Sb         4.679695917      7.812038646     28.308153016 
Sb         7.061487540      8.602957562     30.240829464 
Sb        26.902091195     10.116003041     32.113933557 
Sb         7.125408660     11.677710843     23.030674409 
Sb         8.922113555     13.234458569     24.520523655 
Sb        28.480314506     13.901049944     27.031746091 
Sb        28.509109783     11.527443711     28.481723445 
Sb         9.039790480     12.761325452     30.239485129 
Sb        28.779704801     14.121640649     31.859344184 
Sb        30.252930731     15.496613054     22.973773602 
Sb        10.803318744     16.985709426     24.419661773 
Sb        30.839930400     17.622458018     26.848880603 
Sb         9.143316035     14.966148745     28.245627467 
Sb        10.951120208     16.507133585     30.216950772 
Sb        30.833314488     17.583374919     31.653849876 
Sb         4.075547007      0.173727732     23.332316740 
Sb         6.662177097      1.238095318     24.818371440 
Sb         4.632637638      2.738855084     26.983148491 
Sb         4.386398722      0.148802620     28.313045369 
Sb         6.843766717      1.819869144     30.607133607 
Sb         5.530542438      3.446469222     32.805844924 
Sb         6.647698003      3.670825743     23.380610358 
Sb         8.868926322      5.003351333     24.798081167 
Sb         6.874499148      6.704378188     26.921374924 
Sb         6.661110449      4.166853873     28.451731280 
Sb         9.161314671      5.261826820     30.166018170 
Sb         6.967154867      6.261070055     31.898254002 
Sb         8.790584792      7.444036901     23.526618479 
Sb        11.059311369      8.869383617     24.849796631 
Sb         9.108956251     10.504223623     26.666415563 
Sb         9.421183760      7.967786983     28.228745448 
Sb        11.135607442      9.177366472     30.438881845 
Sb         8.879945328     10.186252275     31.874779059 
Sb        10.841852953     11.537143443     23.188205056 
Sb        12.951107305     12.501853990     24.718140884 
Sb        11.280641983     14.462193500     26.352660104 
Sb        11.141549302     11.860053074     27.967744811 
Sb        13.019495573     13.028891848     30.664425002 
Sb        10.883435101     14.085357512     32.172515952 
Sb        14.286922397     14.193502057     22.542600926 
Sb        15.654523817     16.509847941     24.225848500 
Sb        13.335494778     18.037456004     26.475126571 
Sb        13.239174248     15.671217994     27.971466756 
Sb        14.804072417     16.810108259     30.430383825 
Sb        12.501658492     17.535882489     32.542737178 
Sb        19.889636382     18.847275282     23.511752028 
Sb        10.921591447      1.254956119     25.268872789 
Sb         8.409396796      2.226582016     27.253452810 
Sb        19.823639802     18.710425611     28.661116048 
Sb        11.674219378      1.617430689     30.729297905 
Sb         9.234221799      2.861682293     31.920760038 
Sb        11.174409273      3.802643788     23.396546093 
Sb        13.310944910      5.035347183     24.942875313 
Sb        11.422621450      6.358906097     27.049040398 
Sb        11.087150718      3.546314346     28.067254499 
Sb        13.641226171      4.992314685     30.721759063 
Sb        11.304397284      6.432318170     31.729673867 
Sb        13.507453471      7.351252427     23.334085609 
Sb        15.617660598      8.525264628     24.696405934 
Sb        13.476979924     10.029548480     26.796337663 
Sb        13.667369907      7.432393872     28.292269841 
Sb        16.139215366      8.593306225     30.594633511 
Sb        13.420119016     10.443607778     31.627979470 
Sb        15.648604700     11.198732191     23.664390074 
Sb        17.942766362     12.793471575     24.832460165 
Sb        15.510879213     14.126861273     26.741354416 
Sb        15.250461518     11.590661557     28.397556630 
Sb        18.150346507     12.884545595     30.769399767 
Sb        15.403985342     14.263137444     31.783312730 
Sb        17.993795389     15.441370387     23.281610578 
Sb        19.748294887     16.616809339     25.183330932 
Sb        17.887309743     17.685168366     26.985306541 
Sb        17.739750896     15.329828774     28.597006188 
Sb        19.822083765     16.484861107     30.946675338 
Sb        17.513274530     18.009484757     31.612256185 
Sb        23.847457136     18.942128805     23.599002911 
Sb        15.425218632      1.326273317     24.644688991 
Sb        13.526379864      2.802557539     26.663200595 
Sb        13.342032891      0.507045933     28.347235278 
Sb        15.434297195      0.921191851     30.746542532 
Sb        13.429183300      2.654565441     32.688784249 
Sb        15.618211456      3.731316922     23.441974373 
Sb        17.821158107      5.123958314     24.698699847 
Sb        15.818968626      6.350561640     26.741850238 
Sb        15.578450865      4.157415116     28.204230384 
Sb        17.753987267      4.663025269     30.526060386 
Sb        15.779869140      6.133616094     32.389074304 
Sb        17.799206938      7.673302010     23.202201881 
Sb        19.869518935      8.879265173     24.710679202 
Sb        17.634738049     10.249165312     26.955632956 
Sb        17.797425388      7.658315263     28.166592291 
Sb        20.136294855      8.841728681     30.760946106 
Sb        17.889484951     10.098923586     32.251634955 
Sb        19.996768643     11.359057567     23.125593397 
Sb        21.980311529     12.641865193     24.509052800 
Sb        20.027719142     13.912274318     27.057150629 
Sb        19.728432346     11.576315292     28.579106746 
Sb        22.236512801     12.761534676     30.997904309 
Sb        19.928242460     13.240388875     32.782672359 
Sb        21.966455367     15.428368429     23.558150869 
Sb        24.389722899     16.412025442     24.737642669 
Sb        22.277492776     17.780313776     27.295303646 
Sb        22.173707893     15.053423648     28.651870687 
Sb        24.191730777     16.259691587     30.705876111 
Sb        22.186318712     17.929546222     32.054439879 
Sb        17.527929989      0.139777571     23.041759466 
Sb        19.798372912      1.393612779     24.540906044 
Sb        17.794702849      2.507077213     26.775424827 
Sb        28.481305456     18.865941109     28.382683852 
Sb        19.597186489      1.058306161     30.188798501 
Sb        17.789934831      1.951687477     32.121465439 
Sb        19.640080177      3.936201390     22.981120231 
Sb        21.784937690      5.612532210     24.473863543 
Sb        20.043268772      6.121854094     26.626550581 
Sb        19.909959757      3.821549159     28.272496758 
Sb        21.995709811      4.985580713     30.234202318 
Sb        19.903322924      6.292609554     31.847588585 
Sb        22.086972360      8.019867117     22.725023416 
Sb        24.116621237      8.839076053     24.623806978 
Sb        21.995134610     10.282470582     26.980055742 
Sb        21.923345821      7.473914569     28.268631735 
Sb        24.806739403      9.136757146     30.734704853 
Sb        22.497602010      9.979114948     32.259149266 
Sb        24.141506006     11.693071161     23.085901475 
Sb        26.686560404     12.476775339     24.705415642 
Sb        24.398209278     13.887379912     26.981352702 
Sb        24.224123334     11.324394927     28.351710728 
Sb        26.348947149     12.685171951     30.844897825 
Sb        23.992320532     13.947911173     32.674044790 
Sb        26.536685071     15.078182051     23.228949199 
Sb        28.604204699     16.825324222     24.695069129 
Sb        26.101669918     17.697641026     26.910569421 
Sb        26.287510384     15.271227021     28.466853963 
Sb        28.572565354     16.492744310     30.293207665 
Sb        26.481181128     17.473902897     32.113829623 
  450 
 STEP:  2
Sb        18.620738506     12.429283520     12.053654632 
Sb        11.912075141     17.137527105      6.147299896 
Sb        23.776378739      7.486369553     11.663299567 
Sb        16.612794320     17.773889769      2.312530993 
Sb         4.417783392      6.876864598     13.178038066 
Sb        19.276491564     15.922390797      0.458726297 
Sb        18.801430053     10.700655789     14.297635438 
Sb        18.394096525     16.757936171     17.120032777 
Sb        14.318654058      8.633120585     14.500117685 
Sb        10.068303511     13.108210585     15.381434343 
Sb        16.502718607     18.456736572     10.338255567 
Sb        17.465979971      4.299118783     20.297679494 
Sb        25.371283231     11.219161722      6.597628786 
Sb        22.053291569     16.242399894      1.879456396 
Sb        23.262620742     14.160192290      6.236988411 
Sb         7.065438233      8.788234956      2.139379149 
Sb        24.933374176      8.920394444     18.322231479 
Sb        12.759193194      6.479009741     13.209717264 
Sb         6.536603387      8.867529523     19.984892144 
Sb        11.385840101     13.944136202      2.527176884 
Sb         2.414779274      2.706285492     19.327427310 
Sb        11.362088494     17.500332826     12.438753262 
Sb         5.903274772      7.584592807     10.789590937 
Sb         8.008366606     11.740515525     13.408689854 
Sb        20.621680346     10.902164193      0.880942685 
Sb        10.208583752      3.349696707     10.448167793 
Sb        13.825681794     16.341477325      3.326464902 
Sb         4.595630098      4.169164570      5.918955960 
Sb        12.551408103     10.575467485     12.816387069 
Sb        17.199725874     18.549533791     20.782417631 
Sb         8.648703763      8.842095135      7.773431877 
Sb        24.335664106     14.782873415     21.459402356 
Sb        19.811508234     13.365061854     20.090535343 
Sb        24.177699831     11.716813758     16.537739154 
Sb         3.888424077      1.096370103     33.177034233 
Sb        19.241034643      5.939922142     13.480201789 
Sb        23.984128937     18.828497408     17.782106357 
Sb        11.002777660      8.302987721     14.237977741 
Sb        23.645592337     16.334646372      4.271791739 
Sb        25.156910089     18.691302460      1.170665224 
Sb        19.451957880      8.483650513     10.440705769 
Sb         9.405764059      6.154257253     15.796525900 
Sb         5.774765556      9.322059960      7.024806742 
Sb         8.152361962      6.187766722      8.853734768 
Sb        26.777977318     14.613239360      9.909065167 
Sb        25.858941606     13.778722763      2.870301055 
Sb        11.642972653      4.740974432      0.403515940 
Sb        13.330723636      3.399182832      2.307987733 
Sb        21.353882264      5.107700280      2.147775426 
Sb         8.418024630      0.735403649      6.622541549 
Sb         8.370799090      4.088207213     13.664449654 
Sb        16.921252989      4.336091918     14.129654294 
Sb        12.526227580      4.742295386     15.599813774 
Sb         4.437525127      1.562748627      6.268386901 
Sb        17.048431046     13.007751518      4.627801652 
Sb         8.043618100      8.501053423     16.026924634 
Sb         9.203307583      5.863692411     11.723413811 
Sb        17.519593857      3.926811236     11.289762030 
Sb        16.323714643     12.444236998     14.076392247 
Sb         9.167619761      9.917347949     20.597805345 
Sb         6.721177135      4.171936810      3.869369599 
Sb        13.647477982      7.552097121      0.391820310 
Sb        12.045913833     11.494399569      8.121028409 
Sb        11.138881779     13.391936901     11.750889393 
Sb        10.038520264     12.473876577      4.694068659 
Sb        14.984274252     16.265464428     11.424486908 
Sb         6.355185911      1.522321908     12.387117618 
Sb         9.679453588     10.485596885     17.641356014 
Sb        19.129383304      1.307090148     12.360787375 
Sb         9.130008063     14.619413501     17.646264203 
Sb         2.544109734      3.427862250     14.187318146 
Sb        15.385642243     15.902970735     20.489748141 
Sb         3.648267687      4.163644491     11.172706989 
Sb        20.188011715     12.829560654     16.726087609 
Sb        14.221476683     13.357387485      2.523992835 
Sb         9.969767155     16.453312047      1.377866333 
Sb         8.918189489      9.134167160      4.519528626 
Sb        24.522759814      4.682074187      3.824504579 
Sb        17.275156785     17.890473258      5.457951266 
Sb        17.933772689     10.237224137      1.678177133 
Sb        12.991397903     16.432010689     14.606332449 
Sb         1.732419433      1.893450142      6.708249147 
Sb        13.772887133      4.667973579      8.553135850 
Sb         2.418295759      1.061976828     12.082374441 
Sb        12.560423310     18.589248854      8.816117144 
Sb        14.934344622     18.133442943     13.792238045 
Sb         5.198822679      4.127530469     15.094975576 
Sb        13.565810253      5.268581336      4.603462050 
Sb        14.929512350      9.949383009     10.860380173 
Sb        13.682275229      8.854326468      8.623922075 
Sb        10.687727478      6.766785327      7.499897046 
Sb        15.379307929      5.928470037     11.196543739 
Sb        14.631169136     13.273373484      8.525812250 
Sb         8.335693604      8.826911095     12.668568213 
Sb         9.886630328     10.218367706     10.481790118 
Sb         7.028082474      2.500191367     17.712139915 
Sb        11.880265458      7.137101818     10.025650224 
Sb         7.817172891      1.532252329      3.858379972 
Sb        26.979660890     11.049270065      3.296635836 
Sb        20.050404592      8.612758898      3.443335867 
Sb        24.214460936     16.765889565      8.797256994 
Sb         6.704521845     11.269352280      0.813913362 
Sb        11.537212484      2.518032259     12.849648533 
Sb         6.761025873      3.142535212      9.684034446 
Sb        15.354969431     16.626040927      7.398876878 
Sb        15.387306506     10.684702097      3.832081285 
Sb        13.407367820     15.162427874      0.253929043 
Sb        22.350846938     10.582672180      3.655121157 
Sb        11.061679666     14.125423401      7.100075956 
Sb        11.784243122     15.547988487     22.100375156 
Sb        19.549310828      6.383502300     20.884579946 
Sb        23.325074061     15.784521001     14.688431928 
Sb        19.971407543      6.463047305     16.448401573 
Sb         8.113359331      5.314282966      1.466463546 
Sb        20.939982707     18.836789343     13.246337294 
Sb        13.277723634     10.531926322      0.451197123 
Sb        23.813818417     14.235692506     10.097786417 
Sb         0.627393798      0.502116074      0.702785932 
Sb        19.219492560     15.134638450      5.660209102 
Sb        17.549290782     13.762387127      1.604712149 
Sb        16.217340919     16.205057702      0.011749047 
Sb        29.717390954     18.329589312      0.358180640 
Sb         8.921953228     15.201303923     11.374932418 
Sb        20.511778342     12.832814222      9.066561015 
Sb        23.548208748      3.063212762      0.342150305 
Sb         2.298463467      0.513577684      3.194993332 
Sb        11.637604954      0.479823657      9.521936909 
Sb        21.918782085     15.397796195     17.628507718 
Sb        24.832981921      5.672848508      1.057817841 
Sb        17.743703754      8.013526004     19.329920585 
Sb         7.576177720     12.040976480      9.910882681 
Sb         9.507094122      2.912591016      0.994985776 
Sb        10.174469132      5.523956663      3.611046691 
Sb        12.733172468     11.264095136      5.280420303 
Sb         7.287948013      0.129213734     14.921922949 
Sb        19.440669232     18.935461006     19.142723725 
Sb        15.003771731      8.926615292     20.530292765 
Sb         4.175993400      4.444269596     20.678908205 
Sb        18.036828851      1.481838452     14.954543147 
Sb        16.410425856     12.393120796     17.401422469 
Sb        16.095883851     13.386208989     10.871543040 
Sb        17.942690094      3.910494646     17.148104273 
Sb        15.903806300     15.985305717     16.353303836 
Sb        20.914225486      4.373337905     11.796201747 
Sb        19.908418867      3.541329700      0.289523259 
Sb        12.929116104     18.161843056     20.812707578 
Sb        21.760281249     10.250626232      9.407050696 
Sb        10.463172655     11.108200465      0.812244607 
Sb         8.481587766      6.159788463     20.741476359 
Sb        20.836398513     13.994715521     11.788151800 
Sb        16.632893956      7.758404111      9.014033378 
Sb        12.678966866     15.247934521      9.559549654 
Sb        20.971614846      8.799494586     13.166849350 
Sb        15.690252630      1.833546118     16.987110964 
Sb        11.709100791      8.848458778     20.447672034 
Sb        21.380134726     18.231071283     16.864762488 
Sb        19.238695508      4.795431579      4.089898614 
Sb        22.734762939      5.558981144     14.152414906 
Sb        20.862491575      7.329856687      0.540203415 
Sb        15.590742773      2.512318077      5.162229246 
Sb        18.408155471     10.828547634      6.196249454 
Sb         7.857653097      0.177904318      0.433424757 
Sb        17.203409825     15.250307969     13.675390904 
Sb        28.758178257     12.332387039     18.093861818 
Sb        16.571865566      8.197425178     12.629498148 
Sb        22.481028381      9.477623380      6.586621312 
Sb        25.547160178     16.171659578      6.271029285 
Sb        26.635421448     13.185551341     15.971490887 
Sb        22.270982897     12.753481374     14.485208913 
Sb         5.292746410      8.017294621      4.742023614 
Sb        18.545560989     10.433849361     17.479887706 
Sb        21.812522305     18.075813210      5.878477227 
Sb        17.230303468      1.859093838      8.862168582 
Sb        19.780438505      2.126537702      7.411296803 
Sb         4.832644118      1.493766470     16.289027548 
Sb        12.448660793     11.861257576     17.487324722 
Sb        10.810647743      2.035652401      3.717813117 
Sb        12.265522361     18.296157206     16.607174053 
Sb        26.783716473     15.736688098     19.673136810 
Sb         8.835848087      0.997086943     10.890888312 
Sb        11.283674182      8.030877968     17.872507597 
Sb        13.455232671      3.551653853     18.602067771 
Sb         9.500156883      8.027270322      0.332088770 
Sb        17.429268863      2.219106784      2.981958691 
Sb        23.881135046      7.718261989     15.849519814 
Sb        21.847834065      2.115063424      4.548494662 
Sb        21.486749918     18.807483313      0.990307371 
Sb        14.169968733      8.878222899     17.496104960 
Sb        13.434349361      0.144754327     14.728910433 
Sb        15.752129902      2.310001012      0.814241619 
Sb        14.743634463     14.414601130      5.517416117 
Sb         9.665610752     12.841308664     20.248072386 
Sb        21.334585387      5.537312279      6.042373043 
Sb        14.774835451      5.702726811     19.854248094 
Sb        28.968679310     18.696001640      4.938184133 
Sb        25.137830926     13.991105303     13.447967375 
Sb        23.490446271      7.933644663      2.113895734 
Sb        23.872779138      4.353044613     16.948170239 
Sb        13.366682505     14.440931014     18.645703633 
Sb        13.233925677      0.568379234      3.763900084 
Sb        19.148260846     17.078451079      9.152934742 
Sb        19.723237183      4.931365166      8.133068642 
Sb         5.207078938      5.239498867      8.970859648 
Sb        19.962885968     17.239256264      3.680776283 
Sb        20.015726817      8.242983237      6.271010282 
Sb        27.132662073     13.474910979      7.158534810 
Sb        17.077363016      4.421634129      6.943881872 
Sb        24.453281864      7.231521555      4.915629311 
Sb        28.070422841     10.825859288     15.326422225 
Sb        14.047272137      2.289613454     21.080282894 
Sb        29.019803666     14.673105381     13.369848880 
Sb        18.977391242     10.553269321     20.448116311 
Sb        17.623345216     14.514750541     18.840098167 
Sb        23.747794188     12.415696313      1.536663837 
Sb        20.719967127     12.664066204      5.616135765 
Sb        11.354392771     16.585446358     18.687157358 
Sb        17.386431686     14.812698273      8.545689232 
Sb        27.207652337     18.311850916     14.174547542 
Sb        12.620036119      8.195702337      5.615588250 
Sb        28.033853961     16.526657532     16.195907975 
Sb         9.454109910      2.086995799     15.510088032 
Sb        13.939345387      0.260597903     11.503317970 
Sb        16.256928646     11.636930702     20.774289195 
Sb        26.839791521     18.106497534      9.851707324 
Sb        15.221139655      6.947903514      2.798162790 
Sb        28.700607053     13.901611670     20.787730992 
Sb        14.824633753      2.979840033     10.716592732 
Sb        10.502583361      3.783674892     18.829992231 
Sb         7.171303646      5.324747563     17.798461364 
Sb        20.611621723      2.606376149     17.039918640 
Sb        19.909682043      1.282188023      1.931651872 
Sb        17.045076395      5.004744592      1.611283935 
Sb        27.211522184     14.982534526      0.579764049 
Sb        19.687466371     15.124773244     15.082220266 
Sb        29.591334849     17.687502496     10.983696791 
Sb        23.856021589      6.812488709      7.681154473 
Sb        30.331743094     14.739210779      8.532660083 
Sb         5.447506465      7.001590335      0.608959521 
Sb        14.366778748      2.909752433     13.914630653 
Sb        29.993598573     15.981282076      5.693048190 
Sb        17.427323764      6.672461351      5.312452138 
Sb        25.393932498      8.485377986      9.317005785 
Sb        22.220556431     11.622145935     19.996496993 
Sb        29.096885837     17.476853040     18.517697942 
Sb         7.780343790      6.461114374      5.295053628 
Sb        20.788520328     13.485107654      2.734861015 
Sb        21.630317915      0.717193001     14.196823112 
Sb        24.868827257     11.187561650      9.388084282 
Sb        21.450631197     15.827444089      7.615129413 
Sb         7.809101536     11.783863924      6.870221950 
Sb        29.234885179     13.545372448      4.412724063 
Sb        26.581787462     18.848045290      6.753651900 
Sb        26.367105678     18.274263376     21.025852143 
Sb        12.816904756      1.743027814      7.195874277 
Sb        11.078694282      5.475042774     20.944936953 
Sb        10.984934137      3.508239171      6.127614979 
Sb        30.902421807     18.769303545     16.300682347 
Sb        26.880339169     12.008713980     11.426215440 
Sb        17.891632264      7.499178723      0.432535375 
Sb        27.763931752     17.323498078      2.239641576 
Sb        31.791111139     18.108668614     20.536148185 
Sb        24.468775059      7.059934007     20.505281424 
Sb        12.755341556     13.337158821     14.027721531 
Sb        21.214624222      8.891953417     16.183417289 
Sb         9.888109016      1.931812387     20.842403366 
Sb        18.036769072     11.066851318      9.225620398 
Sb        27.222726921     11.333393782     20.419753981 
Sb        25.238087789     15.972660763     17.028004664 
Sb        23.044085496     10.491409758     12.549118046 
Sb        21.799371646      5.626904898     19.161422234 
Sb         5.726868722      7.974922426     17.246135359 
Sb        25.281956581      9.694212981     14.379605941 
Sb        23.836345276     13.634741184     18.838588357 
Sb        23.122114166     16.936300355     11.629765505 
Sb        19.482375695     16.405767643     11.692102881 
Sb        15.193360738     18.376825379     18.585374997 
Sb        23.436471768      3.665978254      9.472860390 
Sb        25.187903484      9.902633043      1.147979614 
Sb        12.245230865      0.044234734     20.630408954 
Sb         8.515328179      3.505568942      7.436165845 
Sb        17.150570653      8.081956224     15.987644809 
Sb         9.421104095     16.002882112     14.657205756 
Sb        21.413578385      1.220452355      9.900981569 
Sb        22.103800615      8.849703738     19.389353957 
Sb        12.702643108     12.161509800     20.245377027 
Sb        21.641071304      6.403077195      9.920406060 
Sb        11.091127924      8.110980222      2.911423371 
Sb         6.337330717      2.440491704     20.407257004 
Sb         8.184446853     14.041061356      1.704064617 
Sb        21.009441807     16.196969315     20.529278649 
Sb        14.951821475      6.253394788     16.941627161 
Sb         4.019000539      1.601633538      9.289829893 
Sb        16.940136129      1.081707268     19.575418460 
Sb        16.234479673      9.000500530      6.313667511 
Sb        30.876416025     17.978419798      8.516495550 
Sb         4.793974543      1.619018361      2.224353744 
Sb        31.830795740     17.951033515      4.166645064 
Sb        20.192644533      1.855943455     19.832145655 
Sb        22.235558072      3.582226129     20.974085665 
Sb        26.573389671     16.154590767     12.287927331 
Sb        22.115311869      0.511616511     23.203309720 
Sb         2.114266803      1.967429778     24.597366224 
Sb        22.132729721      2.446402620     26.879828502 
Sb         0.392155732      0.157880905     28.522600681 
Sb         2.282040935      0.827546770     30.630298158 
Sb        21.933155827      2.542346523     32.171956412 
Sb        24.431889248      4.413631045     23.128528397 
Sb         4.748994763      5.584938925     24.594751317 
Sb        24.234883075      6.635680080     27.038466693 
Sb         2.434016919      3.726784191     28.455599156 
Sb         4.408779557      5.095246949     30.615491069 
Sb        24.341975345      6.435785048     31.949513557 
Sb        26.407044207      8.106539651     23.268365152 
Sb         6.798320008      8.983858799     24.759206588 
Sb        26.495734414     10.395658917     26.840027341 
Sb         4.683198944      7.813184853     28.309950038 
Sb         7.064794522      8.603798934     30.243669997 
Sb        26.911455809     10.135260291     32.120053434 
Sb         7.114703141     11.680179941     23.034342722 
Sb         8.920736907     13.228904618     24.526737457 
Sb        28.479267846     13.894655761     27.046450413 
Sb        28.509790409     11.522496295     28.481786719 
Sb         9.041532308     12.781793041     30.240257634 
Sb        28.781412350     14.118886592     31.858253517 
Sb        30.258121335     15.481606495     22.971177346 
Sb        10.807037260     16.981266720     24.417545221 
Sb        30.830136163     17.619546957     26.848150677 
Sb         9.127370171     14.974070633     28.253057519 
Sb        10.945992433     16.496705498     30.207306986 
Sb        30.832242371     17.581473597     31.657797614 
Sb         4.075766593      0.169049073     23.328010493 
Sb         6.648803054      1.236545928     24.810164079 
Sb         4.630429633      2.729966813     26.990733372 
Sb         4.394692921      0.151804488     28.306090509 
Sb         6.844015910      1.831601584     30.606833032 
Sb         5.540162550      3.430598240     32.808510519 
Sb         6.643846093      3.660680453     23.386729592 
Sb         8.873859420      4.995970558     24.806989707 
Sb         6.881205020      6.714195214     26.932247870 
Sb         6.666007100      4.170124899     28.446374826 
Sb         9.169593904      5.259128937     30.167612423 
Sb         6.971231302      6.259509518     31.890379792 
Sb         8.790920786      7.448828308     23.529706055 
Sb        11.061822584      8.865426801     24.852442945 
Sb         9.124629272     10.500509895     26.665857030 
Sb         9.408840835      7.982186234     28.218249108 
Sb        11.136443645      9.184468086     30.439657806 
Sb         8.880291986     10.186928231     31.876390170 
Sb        10.841730361     11.527777230     23.183931310 
Sb        12.951564481     12.510181935     24.717307025 
Sb        11.279041936     14.459809806     26.347833163 
Sb        11.148430787     11.870740121     27.968945496 
Sb        13.020848395     13.019912017     30.656900489 
Sb        10.879822977     14.096651055     32.168851265 
Sb        14.294706301     14.196533940     22.551281376 
Sb        15.658355987     16.500053131     24.229559313 
Sb        13.342211602     18.025701019     26.483838950 
Sb        13.242617729     15.670808551     27.976343260 
Sb        14.815060275     16.815122518     30.426332635 
Sb        12.499393953     17.553091857     32.529087392 
Sb        19.900644303     18.845852053     23.516465943 
Sb        10.920504279      1.255507226     25.268945161 
Sb         8.408618741      2.235052562     27.244810454 
Sb        19.825379654     18.705721796     28.655889472 
Sb        11.678354040      1.625375111     30.722766061 
Sb         9.236020227      2.859940973     31.918998491 
Sb        11.179532190      3.798403794     23.389385895 
Sb        13.316316243      5.028051735     24.941004562 
Sb        11.440244554      6.363707481     27.044307829 
Sb        11.090851302      3.557986663     28.065901231 
Sb        13.643719589      4.980706654     30.713444060 
Sb        11.317796592      6.430035527     31.730768266 
Sb        13.510143257      7.347251267     23.331837696 
Sb        15.615881936      8.520188618     24.700806246 
Sb        13.485793404     10.038506546     26.798970443 
Sb        13.676201233      7.421962479     28.286342946 
Sb        16.142846850      8.595432006     30.580602889 
Sb        13.420395266     10.445326677     31.642359303 
Sb        15.650650704     11.188921926     23.658109730 
Sb        17.949768468     12.800575625     24.824699454 
Sb        15.516262065     14.131348918     26.748191223 
Sb        15.249589854     11.591842946     28.389426970 
Sb        18.142668755     12.892493580     30.766945094 
Sb        15.385956191     14.271037712     31.783222423 
Sb        17.991616165     15.443333929     23.275286362 
Sb        19.751708102     16.628769757     25.177255396 
Sb        17.896166048     17.682128480     26.968252358 
Sb        17.738224529     15.336813329     28.601794218 
Sb        19.812399218     16.496392278     30.945452996 
Sb        17.518015255     18.013267813     31.622919263 
Sb        23.854811035     18.939402091     23.599935520 
Sb        15.414762065      1.326951472     24.645451276 
Sb        13.525175355      2.804164389     26.656897161 
Sb        13.339160368      0.501236208     28.346598075 
Sb        15.444360061      0.916434973     30.741984926 
Sb        13.435667743      2.656023356     32.687130197 
Sb        15.618148209      3.725441571     23.442037643 
Sb        17.826077863      5.120574894     24.695190422 
Sb        15.822621665      6.354349856     26.756798987 
Sb        15.564216299      4.166189012     28.196267926 
Sb        17.752108443      4.672967459     30.525417639 
Sb        15.774356385      6.117801021     32.390898300 
Sb        17.781486819      7.681464328     23.196094066 
Sb        19.866081920      8.882335563     24.709604513 
Sb        17.638614090     10.247475084     26.952205621 
Sb        17.793816392      7.653420720     28.175594265 
Sb        20.140371954      8.832312379     30.755589694 
Sb        17.896674633     10.088499196     32.251153688 
Sb        19.988240028     11.356027362     23.115111028 
Sb        21.979441972     12.632823777     24.506200156 
Sb        20.024115141     13.918443600     27.063697844 
Sb        19.718745807     11.570539479     28.573056316 
Sb        22.237071633     12.762252709     31.006717170 
Sb        19.920969927     13.245920605     32.783476560 
Sb        21.959869225     15.435746666     23.560365402 
Sb        24.397938751     16.410449798     24.724974182 
Sb        22.266327625     17.790745074     27.293146009 
Sb        22.161718921     15.060260278     28.643726361 
Sb        24.198262053     16.261751384     30.694216274 
Sb        22.189428431     17.930044218     32.055431197 
Sb        17.521484908      0.132097712     23.048320062 
Sb        19.792415196      1.395285829     24.544212185 
Sb        17.789889102      2.505335528     26.772731275 
Sb        28.479602044     18.867558701     28.382076269 
Sb        19.599792706      1.064742003     30.187170479 
Sb        17.806272875      1.955798659     32.113002741 
Sb        19.637189741      3.939562937     22.972821225 
Sb        21.790498359      5.614076293     24.474959108 
Sb        20.036563049      6.112487213     26.624419576 
Sb        19.904534037      3.820438917     28.269465339 
Sb        21.996441381      4.985817910     30.236901976 
Sb        19.899160442      6.294009972     31.851578351 
Sb        22.092317092      8.027173121     22.734992271 
Sb        24.118906812      8.827316450     24.620514964 
Sb        22.000422464     10.269520136     26.981048722 
Sb        21.916069314      7.469346646     28.269430959 
Sb        24.807670729      9.150789956     30.740761527 
Sb        22.495844548      9.978986006     32.272261512 
Sb        24.140154574     11.697173979     23.094997892 
Sb        26.689761885     12.481272629     24.727858026 
Sb        24.406490429     13.880562751     26.978095030 
Sb        24.221732535     11.327259066     28.358438298 
Sb        26.347965428     12.683946725     30.845571566 
Sb        24.003590801     13.939269908     32.683195236 
Sb        26.530757708     15.089022375     23.217793783 
Sb        28.612004006     16.826474005     24.697398031 
Sb        26.101784548     17.696807113     26.918538793 
Sb        26.279851185     15.279757805     28.474449791 
Sb        28.570812653     16.501185992     30.295872218 
Sb        26.496154342     17.464421696     32.116401974 
